Pierre|NNP|N/N Vinken|NNP|N ,|,|, 61|CD|N/N years|NNS|N old|JJ|S[adj]\NP ,|,|, will|MD|(S[dcl]\NP)/(S[b]\NP) join|VB|(S[b]\NP)/NP the|DT|NP[nb]/N board|NN|N as|IN|((S\NP)\(S\NP))/NP a|DT|NP[nb]/N nonexecutive|JJ|N/N director|NN|N/N Nov.|NNP|N/N 29|CD|N .|.|.
Mr.|NNP|N/N Vinken|NNP|N is|VBZ|(S[dcl]\NP)/NP chairman|NN|N of|IN|(NP\NP)/NP Elsevier|NNP|N/N N.V.|NNP|N ,|,|, the|DT|NP[nb]/N Dutch|JJ|N/N publishing|NN|N/N group|NN|N .|.|.
Rudolph|NNP|N/N Agnew|NNP|N ,|,|, 55|CD|N/N years|NNS|N old|JJ|S[adj]\NP and|CC|conj former|JJ|N/N chairman|NN|N of|IN|(NP\NP)/NP Consolidated|NNP|N/N Gold|NNP|N/N Fields|NNP|N/N PLC|NNP|N ,|,|, was|VBD|(S[dcl]\NP)/(S[pss]\NP) named|VBN|(S[pss]\NP)/NP a|DT|NP[nb]/N nonexecutive|JJ|N/N director|NN|N of|IN|(NP\NP)/NP this|DT|NP[nb]/N British|JJ|N/N industrial|JJ|N/N conglomerate|NN|N .|.|.
A|DT|NP[nb]/N form|NN|N of|IN|(NP\NP)/NP asbestos|NN|N once|RB|(S\NP)/(S\NP) used|VBD|(S[dcl]\NP)/(S[to]\NP) to|TO|(S[to]\NP)/(S[b]\NP) make|VB|(S[b]\NP)/NP Kent|NNP|N/N cigarette|NN|N/N filters|NNS|N has|VBZ|(S[dcl]\NP)/(S[pt]\NP) caused|VBN|(S[pt]\NP)/NP a|DT|NP[nb]/N high|JJ|N/N percentage|NN|N of|IN|(NP\NP)/NP cancer|NN|N/N deaths|NNS|N among|IN|(NP\NP)/NP a|DT|NP[nb]/N group|NN|N of|IN|(NP\NP)/NP workers|NNS|N exposed|VBN|S[pss]\NP to|TO|((S\NP)\(S\NP))/NP it|PRP|NP more|RBR|S[adj]\NP than|IN|((S\NP)\(S\NP))/NP 30|CD|N/N years|NNS|N ago|RB|(S\NP)\(S\NP) ,|,|, researchers|NNS|N reported|VBD|S[dcl]\NP .|.|.
The|DT|NP[nb]/N asbestos|NN|N/N fiber|NN|N ,|,|, crocidolite|NN|N ,|,|, is|VBZ|(S[dcl]\NP)/(S[adj]\NP) unusually|RB|(S[adj]\NP)/(S[adj]\NP) resilient|JJ|S[adj]\NP once|IN|((S\NP)\(S\NP))/S[dcl] it|PRP|NP enters|VBZ|(S[dcl]\NP)/NP the|DT|NP[nb]/N lungs|NNS|N ,|,|, with|IN|((S\NP)\(S\NP))/NP even|RB|(N/N)/(N/N) brief|JJ|N/N exposures|NNS|N to|TO|(NP\NP)/NP it|PRP|NP causing|VBG|(S[ng]\NP)/NP symptoms|NNS|N that|WDT|(NP\NP)/(S[dcl]\NP) show|VBP|(S[dcl]\NP)/NP up|RP|(S\NP)\(S\NP) decades|NNS|N later|RB|(S\NP)\(S\NP) ,|,|, researchers|NNS|N said|VBD|(S[dcl]\S[dcl])\NP .|.|.
Lorillard|NNP|N/N Inc.|NNP|N ,|,|, the|DT|NP[nb]/N unit|NN|N of|IN|(NP\NP)/NP New|NNP|N/N York-based|JJ|N/N Loews|NNP|N/N Corp.|NNP|N that|WDT|(NP\NP)/(S[dcl]\NP) makes|VBZ|(S[dcl]\NP)/NP Kent|NNP|N/N cigarettes|NNS|N ,|,|, stopped|VBD|(S[dcl]\NP)/NP using|VBG|(S[ng]\NP)/NP crocidolite|NN|N in|IN|((S\NP)\(S\NP))/NP its|PRP$|NP[nb]/N Micronite|NNP|N/N cigarette|NN|N/N filters|NNS|N in|IN|((S\NP)\(S\NP))/NP 1956|CD|N .|.|.
Although|IN|(S/S)/NP preliminary|JJ|N/N findings|NNS|N were|VBD|(S[dcl]\NP)/(S[pss]\NP) reported|VBN|S[pss]\NP more|RBR|((S\NP)\(S\NP))/((S\NP)\(S\NP)) than|IN|((S\NP)\(S\NP))/NP a|DT|NP[nb]/N year|NN|N ago|RB|(S\NP)\(S\NP) ,|,|, the|DT|NP[nb]/N latest|JJS|N/N results|NNS|N appear|VBP|(S[dcl]\NP)/PP in|IN|PP/NP today|NN|N 's|POS|(NP[nb]/N)\NP New|NNP|N/N England|NNP|N/N Journal|NNP|N of|IN|(NP\NP)/NP Medicine|NNP|N ,|,|, a|DT|NP[nb]/N forum|NN|N likely|JJ|S[adj]\NP to|TO|(S[to]\NP)/(S[b]\NP) bring|VB|(S[b]\NP)/NP new|JJ|N/N attention|NN|N to|TO|(NP\NP)/NP the|DT|NP[nb]/N problem|NN|N .|.|.
A|DT|NP[nb]/N Lorillard|NNP|N/N spokewoman|NN|N said|VBD|(S[dcl]\NP)/S[dcl] ,|,|, This|DT|NP is|VBZ|(S[dcl]\NP)/NP an|DT|NP[nb]/N old|JJ|N/N story|NN|N .|.|.
We|PRP|NP 're|VBP|(S[dcl]\NP)/(S[ng]\NP) talking|VBG|S[ng]\NP about|IN|((S\NP)\(S\NP))/NP years|NNS|N ago|RB|(S\NP)\(S\NP) before|IN|((S\NP)\(S\NP))/NP anyone|DT|NP[nb]/N heard|VBN|S[pss]\NP of|IN|((S\NP)\(S\NP))/NP asbestos|NN|N having|VBG|(S[ng]\NP)/NP any|DT|NP[nb]/N questionable|JJ|N/N properties|NNS|N .|.|.
There|EX|NP[thr] is|VBZ|(S[dcl]\NP[thr])/NP no|DT|NP[nb]/N asbestos|NN|N in|IN|(NP\NP)/NP our|PRP$|NP[nb]/N products|NNS|N now|RB|(S\NP)\(S\NP) .|.|.
Neither|CC|S/S Lorillard|NNP|N nor|CC|conj the|DT|NP[nb]/N researchers|NNS|N who|WP|(NP\NP)/(S[dcl]\NP) studied|VBD|(S[dcl]\NP)/NP the|DT|NP[nb]/N workers|NNS|N were|VBD|(S[dcl]\NP)/(S[adj]\NP) aware|JJ|S[adj]\NP of|IN|(NP\NP)/NP any|DT|NP[nb]/N research|NN|N on|IN|(NP\NP)/NP smokers|NNS|N of|IN|(NP\NP)/NP the|DT|NP[nb]/N Kent|NNP|N/N cigarettes|NNS|N .|.|.
We|PRP|NP have|VBP|(S[dcl]\NP)/NP no|DT|NP[nb]/N useful|JJ|N/N information|NN|N on|IN|(NP\NP)/NP whether|IN|PP/NP users|NNS|N are|VBP|(S[dcl]\NP)/PP at|IN|PP/NP risk|NN|N ,|,|, said|VBD|(S[dcl]\S[dcl])/NP James|NNP|N/N A.|NNP|N/N Talcott|NNP|N of|IN|(NP\NP)/NP Boston|NNP|N 's|POS|(NP[nb]/N)\NP Dana-Farber|NNP|N/N Cancer|NNP|N/N Institute|NNP|N .|.|.
Dr.|NNP|N/N Talcott|NNP|N led|VBD|(S[dcl]\NP)/NP a|DT|NP[nb]/N team|NN|N of|IN|(NP\NP)/NP researchers|NNS|N from|IN|(NP\NP)/NP the|DT|NP[nb]/N National|NNP|N/N Cancer|NNP|N/N Institute|NNP|N and|CC|conj the|DT|NP[nb]/N medical|JJ|N/N schools|NNS|N of|IN|(NP\NP)/NP Harvard|NNP|N/N University|NNP|N and|CC|conj Boston|NNP|N/N University|NNP|N .|.|.
The|DT|NP[nb]/N Lorillard|NNP|N/N spokeswoman|NN|N said|VBD|(S[dcl]\NP)/S[dcl] asbestos|NN|N was|VBD|(S[dcl]\NP)/(S[pss]\NP) used|VBN|S[pss]\NP in|IN|((S\NP)\(S\NP))/NP very|RB|(N/N)/(N/N) modest|JJ|N/N amounts|NNS|N in|IN|(NP\NP)/NP making|VBG|N/N paper|NN|N for|IN|(NP\NP)/NP the|DT|NP[nb]/N filters|NNS|N in|IN|((S\NP)\(S\NP))/NP the|DT|NP[nb]/N early|JJ|N/N 1950s|NNS|N and|CC|conj replaced|VBN|S[pss]\NP with|IN|((S\NP)\(S\NP))/NP a|DT|NP[nb]/N different|JJ|N/N type|NN|N of|IN|(NP\NP)/NP filter|NN|N in|IN|(NP\NP)/NP 1956|CD|N .|.|.
From|IN|(S/S)/NP 1953|CD|N/N to|TO|N/N 1955|CD|N ,|,|, 9.8|CD|N/N billion|CD|N/N Kent|NNP|N/N cigarettes|NNS|N with|IN|(NP\NP)/NP the|DT|NP[nb]/N filters|NNS|N were|VBD|(S[dcl]\NP)/(S[pss]\NP) sold|VBN|S[pss]\NP ,|,|, the|DT|NP[nb]/N company|NN|N said|VBD|S[dcl]\NP .|.|.
Among|IN|(S/S)/NP 33|CD|N/N men|NNS|N who|WP|(NP\NP)/(S[dcl]\NP) worked|VBD|S[dcl]\NP closely|RB|(S\NP)\(S\NP) with|IN|((S\NP)\(S\NP))/NP the|DT|NP[nb]/N substance|NN|N ,|,|, 28|CD|N have|VBP|(S[dcl]\NP)/(S[pt]\NP) died|VBN|(S[pt]\NP)/NP --|:|: more|JJR|S[adj]\NP than|IN|((S[adj]\NP)\(S[adj]\NP))/NP three|CD|N/N times|NNS|N the|DT|NP[nb]/N expected|JJ|N/N number|NN|N .|.|.
Four|CD|N of|IN|(NP\NP)/NP the|DT|NP[nb]/N five|CD|N/N surviving|VBG|N/N workers|NNS|N have|VBP|(S[dcl]\NP)/NP asbestos-related|JJ|N/N diseases|NNS|N ,|,|, including|VBG|(S[ng]\NP)/NP three|CD|N with|IN|(NP\NP)/NP recently|RB|(N/N)/(N/N) diagnosed|VBN|N/N cancer|NN|N .|.|.
The|DT|NP[nb]/N total|NN|N of|IN|(NP\NP)/NP 18|CD|N/N deaths|NNS|N from|IN|((S\NP)\(S\NP))/NP malignant|JJ|N/N mesothelioma|NN|N ,|,|, lung|NN|N/N cancer|NN|N and|CC|conj asbestosis|NN|N was|VBD|(S[dcl]\NP)/NP far|RB|(S\NP)\(S\NP) higher|JJR|S[adj]\NP than|IN|((S[adj]\NP)\(S[adj]\NP))/NP expected|VBN|S[pss]\NP ,|,|, the|DT|NP[nb]/N researchers|NNS|N said|VBD|S[dcl]\NP .|.|.
The|DT|NP[nb]/N morbidity|NN|N/N rate|NN|N is|VBZ|(S[dcl]\NP)/NP a|DT|NP[nb]/N striking|JJ|N/N finding|NN|N among|IN|(NP\NP)/NP those|DT|NP of|IN|(NP\NP)/NP us|PRP|NP who|WP|(NP\NP)/(S[dcl]\NP) study|VBP|(S[dcl]\NP)/(S[adj]\NP) asbestos-related|JJ|N/N diseases|NNS|N ,|,|, said|VBD|(S[dcl]\NP)/S[dcl] Dr.|NNP|N/N Talcott|NNP|N .|.|.
The|DT|NP[nb]/N percentage|NN|N of|IN|(NP\NP)/NP lung|NN|N/N cancer|NN|N/N deaths|NNS|N among|IN|(NP\NP)/NP the|DT|NP[nb]/N workers|NNS|N at|IN|(NP\NP)/NP the|DT|NP[nb]/N West|NNP|N/N Groton|NNP|N ,|,|, Mass.|NNP|N ,|,|, paper|NN|N/N factory|NN|N appears|VBZ|(S[dcl]\NP)/(S[to]\NP) to|TO|(S[to]\NP)/(S[b]\NP) be|VB|(S[b]\NP)/NP the|DT|NP[nb]/N highest|JJS|N/N for|IN|((S\NP)\(S\NP))/NP any|DT|NP[nb]/N asbestos|NN|N/N workers|NNS|N studied|VBN|S[pss]\NP in|IN|((S\NP)\(S\NP))/NP Western|JJ|N/N industrialized|JJ|N/N countries|NNS|N ,|,|, he|PRP|NP said|VBD|(S[dcl]\S[dcl])\NP .|.|.
The|DT|NP[nb]/N plant|NN|N ,|,|, which|WDT|(NP\NP)/(S[dcl]\NP) is|VBZ|(S[dcl]\NP)/(S[pss]\NP) owned|VBN|S[pss]\NP by|IN|((S\NP)\(S\NP))/NP Hollingsworth|NNP|N/N &|CC|N/N Vose|NNP|N/N Co.|NNP|N ,|,|, was|VBD|(S[dcl]\NP)/NP under|IN|((S\NP)\(S\NP))/NP contract|NN|N with|IN|((S\NP)\(S\NP))/NP Lorillard|NNP|N to|TO|(S[to]\NP)/(S[b]\NP) make|VB|(S[b]\NP)/NP the|DT|NP[nb]/N cigarette|NN|N/N filters|NNS|N .|.|.
The|DT|NP[nb]/N finding|NN|N probably|RB|(S\NP)/(S\NP) will|MD|(S[dcl]\NP)/(S[b]\NP) support|VB|(S[b]\NP)/NP those|DT|NP[nb]/N who|WP|(NP\NP)/(S[dcl]\NP) argue|VBP|S[dcl]\NP that|IN|S[em]/S[dcl] the|DT|NP[nb]/N U.S.|NNP|N should|MD|(S[dcl]\NP)/(S[b]\NP) regulate|VB|(S[b]\NP)/NP the|DT|NP[nb]/N class|NN|N of|IN|(NP\NP)/NP asbestos|NN|N/N including|VBG|N/N crocidolite|NN|N more|RBR|((S\NP)\(S\NP))/((S\NP)\(S\NP)) stringently|RB|(S\NP)\(S\NP) than|IN|PP/NP the|DT|NP[nb]/N common|JJ|N/N kind|NN|N of|IN|(NP\NP)/NP asbestos|NN|N ,|,|, chrysotile|NN|N ,|,|, found|VBD|S[dcl]\NP in|IN|((S\NP)\(S\NP))/NP most|JJS|N/N schools|NNS|N and|CC|conj other|JJ|N/N buildings|NNS|N ,|,|, Dr.|NNP|N/N Talcott|NNP|N said|VBD|(S[dcl]\S[dcl])\NP .|.|.
The|DT|NP[nb]/N U.S.|NNP|N is|VBZ|(S[dcl]\NP)/NP one|CD|N of|IN|(NP\NP)/NP the|DT|NP[nb]/N few|JJ|N/N industrialized|JJ|N/N nations|NNS|N that|WDT|(NP\NP)/(S[dcl]\NP) does|VBZ|(S[dcl]\NP)/(S[b]\NP) n't|RB|(S\NP)\(S\NP) have|VB|(S[b]\NP)/NP a|DT|NP[nb]/N higher|JJR|N/N standard|NN|N of|IN|(NP\NP)/NP regulation|NN|N for|IN|(NP\NP)/NP the|DT|NP[nb]/N smooth|JJ|N/N ,|,|, needle-like|JJ|N/N fibers|NNS|N such|JJ|(NP\NP)/(NP\NP) as|IN|(NP\NP)/NP crocidolite|NN|N that|WDT|(NP\NP)/(S[dcl]\NP) are|VBP|(S[dcl]\NP)/(S[pss]\NP) classified|VBN|(S[pss]\NP)/PP as|IN|PP/NP amphobiles|NNS|N ,|,|, according|VBG|(S[ng]\NP)/NP to|TO|PP/NP Brooke|NNP|N/N T.|NNP|N/N Mossman|NNP|N ,|,|, a|DT|NP[nb]/N professor|NN|N of|IN|(NP\NP)/NP pathlogy|NN|N at|IN|(NP\NP)/NP the|DT|NP[nb]/N University|NNP|N of|IN|(NP\NP)/NP Vermont|NNP|N/N College|NNP|N of|IN|(NP\NP)/NP Medicine|NNP|N .|.|.
More|RBR|N/N common|JJ|N/N chrysotile|NN|N/N fibers|NNS|N are|VBP|(S[dcl]\NP)/(S[adj]\NP) curly|JJ|S[adj]\NP and|CC|conj are|VBP|(S[dcl]\NP)/NP more|RBR|N easily|RB|(S\NP)/(S\NP) rejected|VBN|S[pss]\NP by|IN|((S\NP)\(S\NP))/NP the|DT|NP[nb]/N body|NN|N ,|,|, Dr.|NNP|N/N Mossman|NNP|N explained|VBD|(S[dcl]\S[dcl])\NP .|.|.
In|IN|(S/S)/NP July|NNP|N ,|,|, the|DT|NP[nb]/N Environmental|NNP|N/N Protection|NNP|N/N Agency|NNP|N imposed|VBD|(S[dcl]\NP)/NP a|DT|NP[nb]/N gradual|JJ|N/N ban|NN|N on|IN|(NP\NP)/NP virtually|RB|NP/NP all|DT|NP[nb]/N uses|NNS|N of|IN|(NP\NP)/NP asbestos|NN|N .|.|.
By|IN|(S/S)/NP 1997|CD|N ,|,|, almost|RB|NP/NP all|DT|NP[nb]/N remaining|VBG|N/N uses|NNS|N of|IN|(NP\NP)/NP cancer-causing|JJ|N/N asbestos|NN|N will|MD|(S[dcl]\NP)/(S[b]\NP) be|VB|(S[b]\NP)/(S[pss]\NP) outlawed|VBN|S[pss]\NP .|.|.
About|IN|(S/S)/NP 160|CD|N/N workers|NNS|N at|IN|((S\NP)\(S\NP))/NP a|DT|NP[nb]/N factory|NN|N that|WDT|(NP\NP)/(S[dcl]\NP) made|VBD|(S[dcl]\NP)/NP paper|NN|N for|IN|(NP\NP)/NP the|DT|NP[nb]/N Kent|NNP|N/N filters|NNS|N were|VBD|(S[dcl]\NP)/(S[pss]\NP) exposed|VBN|(S[pss]\NP)/PP to|TO|PP/NP asbestos|NN|N in|IN|(NP\NP)/NP the|DT|NP[nb]/N 1950s|NNS|N .|.|.
Areas|NNS|N of|IN|(NP\NP)/NP the|DT|NP[nb]/N factory|NN|N were|VBD|(S[dcl]\NP)/(S[adj]\NP) particularly|RB|(S[adj]\NP)/(S[adj]\NP) dusty|JJ|S[adj]\NP where|WRB|((S[adj]\NP)\(S[adj]\NP))/NP the|DT|NP[nb]/N crocidolite|NN|N was|VBD|(S[dcl]\NP)/(S[pss]\NP) used|VBN|S[pss]\NP .|.|.
Workers|NNS|N dumped|VBD|(S[dcl]\NP)/NP large|JJ|N/N burlap|NN|N/N sacks|NNS|N of|IN|(NP\NP)/NP the|DT|NP[nb]/N imported|VBN|N/N material|NN|N into|IN|((S\NP)\(S\NP))/NP a|DT|NP[nb]/N huge|JJ|N/N bin|NN|N ,|,|, poured|VBD|(S[dcl]\NP)/NP in|IN|((S\NP)\(S\NP))/NP cotton|NN|N and|CC|conj acetate|NN|N/N fibers|NNS|N and|CC|conj mechanically|RB|(S[adj]\NP)/(S[adj]\NP) mixed|JJ|S[adj]\NP the|DT|NP[nb]/N dry|JJ|N/N fibers|NNS|N in|IN|(NP\NP)/NP a|DT|NP[nb]/N process|NN|N used|VBN|(S[pss]\NP)/PP to|TO|(S[to]\NP)/(S[b]\NP) make|VB|(S[b]\NP)/NP filters|NNS|N .|.|.
Workers|NNS|N described|VBD|(S[dcl]\NP)/NP clouds|NNS|N of|IN|(NP\NP)/NP blue|JJ|N/N dust|NN|N that|WDT|(NP\NP)/(S[dcl]\NP) hung|VBD|S[dcl]\NP over|IN|((S\NP)\(S\NP))/NP parts|NNS|N of|IN|(NP\NP)/NP the|DT|NP[nb]/N factory|NN|N ,|,|, even|RB|((S\NP)\(S\NP))/((S\NP)\(S\NP)) though|IN|((S\NP)\(S\NP))/NP exhaust|JJ|N/N fans|NNS|N ventilated|VBD|(S[dcl]\NP)/NP the|DT|NP[nb]/N area|NN|N .|.|.
There|EX|NP[thr] 's|VBZ|(S[dcl]\NP[thr])/NP no|DT|NP[nb]/N question|NN|N that|IN|S[em]/S[dcl] some|DT|NP of|IN|(NP\NP)/NP those|DT|NP[nb]/N workers|NNS|N and|CC|conj managers|NNS|N contracted|VBD|(S[dcl]\NP)/NP asbestos-related|JJ|N/N diseases|NNS|N ,|,|, said|VBD|(S[dcl]\NP)/S[dcl] Darrell|NNP|N/N Phillips|NNP|N ,|,|, vice|NN|N/N president|NN|N of|IN|(NP\NP)/NP human|JJ|N/N resources|NNS|N for|IN|(NP\NP)/NP Hollingsworth|NNP|N/N &|CC|N/N Vose|NNP|N .|.|.
But|CC|S/S you|PRP|NP have|VBP|(S[dcl]\NP)/(S[to]\NP) to|TO|(S[to]\NP)/(S[b]\NP) recognize|VB|S[b]\NP that|IN|S[em]/S[dcl] these|DT|NP[nb]/N events|NNS|N took|VBD|(S[dcl]\NP)/NP place|NN|N 35|CD|N/N years|NNS|N ago|RB|(S\NP)\(S\NP) .|.|.
It|PRP|NP has|VBZ|(S[dcl]\NP)/NP no|DT|NP[nb]/N bearing|NN|N on|IN|(NP\NP)/NP our|PRP$|NP[nb]/N work|NN|N/N force|NN|N/N today|NN|N .|.|.
Yields|NNS|N on|IN|(NP\NP)/NP money-market|JJ|N/N mutual|JJ|N/N funds|NNS|N continued|VBD|(S[dcl]\NP)/(S[to]\NP) to|TO|(S[to]\NP)/(S[b]\NP) slide|VB|(S[b]\NP)/NP ,|,|, amid|IN|((S\NP)\(S\NP))/NP signs|NNS|N that|IN|S[em]/S[dcl] portfolio|NN|N/N managers|NNS|N expect|VBP|(S[dcl]\NP)/NP further|JJ|N/N declines|NNS|N in|IN|(NP\NP)/NP interest|NN|N/N rates|NNS|N .|.|.
The|DT|NP[nb]/N average|JJ|N/N seven-day|JJ|N/N compound|NN|N/N yield|NN|N of|IN|(NP\NP)/NP the|DT|NP[nb]/N 400|CD|N/N taxable|JJ|N/N funds|NNS|N tracked|VBN|S[pss]\NP by|IN|((S\NP)\(S\NP))/NP IBC|NNP|N 's|POS|(NP[nb]/N)\NP Money|NNP|N/N Fund|NNP|N/N Report|NNP|N eased|VBD|(S[dcl]\NP)/NP a|DT|NP[nb]/N fraction|NN|N of|IN|(NP\NP)/NP a|DT|NP[nb]/N percentage|NN|N/N point|NN|N to|TO|(NP\NP)/NP 8.45|CD|N/N %|NN|N from|IN|(NP\NP)/NP 8.47|CD|N/N %|NN|N for|IN|(NP\NP)/NP the|DT|NP[nb]/N week|NN|N ended|VBD|S[dcl]\NP Tuesday|NNP|N .|.|.
Compound|JJ|N/N yields|NNS|N assume|VBP|(S[dcl]\NP)/NP reinvestment|NN|N of|IN|(NP\NP)/NP dividends|NNS|N and|CC|conj that|IN|S[em]/S[dcl] the|DT|NP[nb]/N current|JJ|N/N yield|NN|N continues|VBZ|(S[dcl]\NP)/PP for|IN|PP/NP a|DT|NP[nb]/N year|NN|N .|.|.
Average|JJ|N/N maturity|NN|N of|IN|(NP\NP)/NP the|DT|NP[nb]/N funds|NNS|N '|POS|(NP[nb]/N)\NP investments|NNS|N lengthened|VBN|S[pss]\NP by|IN|((S\NP)\(S\NP))/NP a|DT|NP[nb]/N day|NN|N to|TO|(NP\NP)/NP 41|CD|N/N days|NNS|N ,|,|, the|DT|NP[nb]/N longest|JJS|N/N since|IN|((S\NP)\(S\NP))/NP early|JJ|N/N August|NNP|N ,|,|, according|VBG|(S[ng]\NP)/NP to|TO|PP/NP Donoghue|NNP|N 's|POS|(NP[nb]/N)\NP .|.|.
Longer|JJR|N/N maturities|NNS|N are|VBP|(S[dcl]\NP)/(S[pss]\NP) thought|VBN|(S[pss]\NP)/(S[to]\NP) to|TO|(S[to]\NP)/(S[b]\NP) indicate|VB|(S[b]\NP)/NP declining|VBG|N/N interest|NN|N/N rates|NNS|N because|IN|((S\NP)\(S\NP))/S[dcl] they|PRP|NP permit|VBP|(S[dcl]\NP)/NP portfolio|NN|N/N managers|NNS|N to|TO|(S[to]\NP)/(S[b]\NP) retain|VB|(S[b]\NP)/NP relatively|RB|(S\NP)\(S\NP) higher|JJR|N/N rates|NNS|N for|IN|(NP\NP)/NP a|DT|NP[nb]/N longer|JJR|N/N period|NN|N .|.|.
Shorter|NNP|N/N maturities|NNS|N are|VBP|(S[dcl]\NP)/(S[pss]\NP) considered|VBN|(S[pt]\NP)/NP a|DT|NP[nb]/N sign|NN|N of|IN|(NP\NP)/NP rising|VBG|N/N rates|NNS|N because|IN|(NP\NP)/NP portfolio|NN|N/N managers|NNS|N can|MD|(S[dcl]\NP)/(S[b]\NP) capture|VB|(S[b]\NP)/NP higher|JJR|N/N rates|NNS|N sooner|RB|(S\NP)\(S\NP) .|.|.
The|DT|NP[nb]/N average|JJ|N/N maturity|NN|N for|IN|(NP\NP)/NP funds|NNS|N open|JJ|S[adj]\NP only|RB|(S\NP)\(S\NP) to|TO|PP/NP institutions|NNS|N ,|,|, considered|VBN|S[pss]\NP by|IN|((S\NP)\(S\NP))/NP some|DT|NP[nb]/N to|TO|(S[to]\NP)/(S[b]\NP) be|VB|(S[b]\NP)/NP a|DT|NP[nb]/N stronger|JJR|N/N indicator|NN|N because|IN|(NP\NP)/NP those|DT|NP[nb]/N managers|NNS|N watch|VBP|(S[dcl]\NP)/NP the|DT|NP[nb]/N market|NN|N closely|RB|(S\NP)/(S\NP) ,|,|, reached|VBD|(S[dcl]\NP)/NP a|DT|NP[nb]/N high|JJ|N/N point|NN|N for|IN|(NP\NP)/NP the|DT|NP[nb]/N year|NN|N --|IN|(NP\NP)/NP 33|CD|N/N days|NNS|N .|.|.
Nevertheless|RB|S/S ,|,|, said|VBD|(S[dcl]\S[dcl])/NP Brenda|NNP|N/N Malizia|NNP|N/N Negus|NNP|N ,|,|, editor|NN|N of|IN|(NP\NP)/NP Money|NNP|N/N Fund|NNP|N/N Report|NNP|N ,|,|, yields|NNS|N may|MD|(S[dcl]\NP)/(S[b]\NP) blip|VB|(S[b]\NP)/NP up|RP|(S\NP)\(S\NP) again|RB|((S\NP)\(S\NP))/((S\NP)\(S\NP)) before|IN|((S\NP)\(S\NP))/S[dcl] they|PRP|NP blip|VBP|(S[dcl]\NP)/(S[adj]\NP) down|RB|(S\NP)\(S\NP) because|IN|PP/NP of|IN|PP/NP recent|JJ|N/N rises|NNS|N in|IN|((S\NP)\(S\NP))/NP short-term|JJ|N/N interest|NN|N/N rates|NNS|N .|.|.
The|DT|NP[nb]/N yield|NN|N on|IN|(NP\NP)/NP six-month|JJ|N/N Treasury|NNP|N/N bills|NNS|N sold|VBN|S[pss]\NP at|IN|((S\NP)\(S\NP))/NP Monday|NNP|N 's|POS|(NP[nb]/N)\NP auction|NN|N ,|,|, for|IN|((S\NP)\(S\NP))/NP example|NN|N ,|,|, rose|VBD|(S[dcl]\NP)/NP to|TO|PP/NP 8.04|CD|N/N %|NN|N from|IN|(NP\NP)/NP 7.90|CD|N/N %|NN|N .|.|.
Despite|IN|(S/S)/NP recent|JJ|N/N declines|NNS|N in|IN|((S\NP)\(S\NP))/NP yields|NNS|N ,|,|, investors|NNS|N continue|VBP|(S[dcl]\NP)/(S[to]\NP) to|TO|(S[to]\NP)/(S[b]\NP) pour|VB|(S[b]\NP)/NP cash|NN|N into|IN|((S\NP)\(S\NP))/NP money|NN|N/N funds|NNS|N .|.|.
Assets|NNS|N of|IN|(NP\NP)/NP the|DT|NP[nb]/N 400|CD|N/N taxable|JJ|N/N funds|NNS|N grew|VBD|S[dcl]\NP by|IN|((S\NP)\(S\NP))/NP $|$|N/N[num] 1.5|CD|N/N billion|CD|N[num] during|IN|(NP\NP)/NP the|DT|NP[nb]/N latest|JJS|N/N week|NN|N ,|,|, to|TO|(NP\NP)/NP $|$|N/N[num] 352.7|CD|N/N billion|CD|N[num] .|.|.
Typically|RB|S/S ,|,|, money-fund|NN|N/N yields|NNS|N beat|VBP|(S[dcl]\NP)/NP comparable|JJ|N/N short-term|JJ|N/N investments|NNS|N because|IN|(NP\NP)/NP portfolio|NN|N/N managers|NNS|N can|MD|(S[dcl]\NP)/(S[b]\NP) vary|VB|(S[b]\NP)/NP maturities|NNS|N and|CC|conj go|VB|(S[b]\NP)/PP after|IN|PP/NP the|DT|NP[nb]/N highest|JJS|N/N rates|NNS|N .|.|.
The|DT|NP[nb]/N top|JJ|N/N money|NN|N/N funds|NNS|N are|VBP|(S[dcl]\NP)/(S[ng]\NP) currently|RB|(S\NP)\(S\NP) yielding|VBG|(S[ng]\NP)/NP well|RB|(S\NP)\(S\NP) over|IN|PP/NP 9|CD|N/N %|NN|N .|.|.
Dreyfus|NNP|N/N World-Wide|NNP|N/N Dollar|NNP|N ,|,|, the|DT|NP[nb]/N top-yielding|JJ|N/N fund|NN|N ,|,|, had|VBD|(S[dcl]\NP)/NP a|DT|NP[nb]/N seven-day|JJ|N/N compound|NN|N/N yield|NN|N of|IN|(NP\NP)/NP 9.37|CD|N/N %|NN|N during|IN|(NP\NP)/NP the|DT|NP[nb]/N latest|JJS|N/N week|NN|N ,|,|, down|RB|((S\NP)\(S\NP))/((S\NP)\(S\NP)) from|IN|PP/NP 9.45|CD|N/N %|NN|N a|DT|NP[nb]/N week|NN|N earlier|RBR|(S\NP)\(S\NP) .|.|.
It|PRP|NP invests|VBZ|(S[dcl]\NP)/NP heavily|RB|(S\NP)\(S\NP) in|IN|((S\NP)\(S\NP))/NP dollar-denominated|JJ|N/N securities|NNS|N overseas|RB|(S\NP)\(S\NP) and|CC|conj is|VBZ|(S[dcl]\NP)/NP currently|RB|(S\NP)\(S\NP) waiving|VBG|(S[ng]\NP)/NP management|NN|N/N fees|NNS|N ,|,|, which|WDT|(NP\NP)/(S[dcl]\NP) boosts|VBZ|(S[dcl]\NP)/NP its|PRP$|NP[nb]/N yield|NN|N .|.|.
The|DT|NP[nb]/N average|JJ|N/N seven-day|JJ|N/N simple|JJ|N/N yield|NN|N of|IN|(NP\NP)/NP the|DT|NP[nb]/N 400|CD|N/N funds|NNS|N was|VBD|(S[dcl]\NP)/NP 8.12|CD|N/N %|NN|N ,|,|, down|RB|((S\NP)\(S\NP))/((S\NP)\(S\NP)) from|IN|PP/NP 8.14|CD|N/N %|NN|N .|.|.
The|DT|NP[nb]/N 30-day|JJ|N/N simple|JJ|N/N yield|NN|N fell|VBD|(S[dcl]\NP)/PP to|TO|PP/NP an|DT|NP[nb]/N average|JJ|N/N 8.19|CD|N/N %|NN|N from|IN|(NP\NP)/NP 8.22|CD|N/N %|NN|N ;|;|; the|DT|NP[nb]/N 30-day|JJ|N/N compound|NN|N/N yield|NN|N slid|VBD|(S[dcl]\NP)/PP to|TO|PP/NP an|DT|NP[nb]/N average|JJ|N/N 8.53|CD|N/N %|NN|N from|IN|(NP\NP)/NP 8.56|CD|N/N %|NN|N .|.|.
J.P.|NNP|N/N Bolduc|NNP|N ,|,|, vice|NN|N/N chairman|NN|N of|IN|(NP\NP)/NP W.R.|NNP|N/N Grace|NNP|N/N &|CC|N/N Co.|NNP|N ,|,|, which|WDT|(NP\NP)/(S[dcl]\NP) holds|VBZ|(S[dcl]\NP)/NP a|DT|NP[nb]/N 83.4|CD|(N/N)/(N/N) %|NN|N/N interest|NN|N in|IN|(NP\NP)/NP this|DT|NP[nb]/N energy-services|JJ|N/N company|NN|N ,|,|, was|VBD|(S[dcl]\NP)/(S[pss]\NP) elected|VBN|(S[pss]\NP)/NP a|DT|NP[nb]/N director|NN|N .|.|.
He|PRP|NP succeeds|VBZ|(S[dcl]\NP)/NP Terrence|NNP|N/N D.|NNP|N/N Daniels|NNP|N ,|,|, formerly|RB|NP/NP a|DT|NP[nb]/N W.R.|NNP|N/N Grace|NNP|N/N vice|NN|N/N chairman|NN|N ,|,|, who|WP|(NP\NP)/(S[dcl]\NP) resigned|VBD|S[dcl]\NP .|.|.
W.R.|NNP|N/N Grace|NNP|N holds|VBZ|(S[dcl]\NP)/NP three|CD|N of|IN|(NP\NP)/NP Grace|NNP|N/N Energy|NNP|N 's|POS|(NP[nb]/N)\NP seven|CD|N/N board|NN|N/N seats|NNS|N .|.|.
Pacific|NNP|N/N First|NNP|N/N Financial|NNP|N/N Corp.|NNP|N said|VBD|(S[dcl]\NP)/S[dcl] shareholders|NNS|N approved|VBD|(S[dcl]\NP)/NP its|PRP$|NP[nb]/N acquisition|NN|N by|IN|(NP\NP)/NP Royal|NNP|N/N Trustco|NNP|N/N Ltd.|NNP|N of|IN|(NP\NP)/NP Toronto|NNP|N for|IN|(NP\NP)/NP $|$|N/N[num] 27|CD|N[num] a|DT|NP[nb]/N share|NN|N ,|,|, or|CC|conj $|$|N/N[num] 212|CD|N/N million|CD|N[num] .|.|.
The|DT|NP[nb]/N thrift|NN|N/N holding|VBG|N/N company|NN|N said|VBD|(S[dcl]\NP)/S[dcl] it|PRP|NP expects|VBZ|(S[dcl]\NP)/(S[to]\NP) to|TO|(S[to]\NP)/(S[b]\NP) obtain|VB|(S[b]\NP)/NP regulatory|JJ|N/N approval|NN|N and|CC|conj complete|VB|(S[b]\NP)/NP the|DT|NP[nb]/N transaction|NN|N by|IN|(NP\NP)/NP year-end|NN|N .|.|.
McDermott|NNP|N/N International|NNP|N/N Inc.|NNP|N said|VBD|(S[dcl]\NP)/S[dcl] its|PRP$|NP[nb]/N Babcock|NNP|N/N &|CC|N/N Wilcox|NNP|N/N unit|NN|N completed|VBD|(S[dcl]\NP)/NP the|DT|NP[nb]/N sale|NN|N of|IN|(NP\NP)/NP its|PRP$|NP[nb]/N Bailey|NNP|N/N Controls|NNP|N/N Operations|NNP|N to|TO|(NP\NP)/NP Finmeccanica|NNP|N/N S.p|NNP|N .|.|. A.|NN|N for|IN|(NP\NP)/NP $|$|N/N[num] 295|CD|N/N million|CD|N[num] .|.|.
Finmeccanica|NNP|N is|VBZ|(S[dcl]\NP)/NP an|DT|NP[nb]/N Italian|JJ|N/N state-owned|JJ|N/N holding|VBG|N/N company|NN|N with|IN|(NP\NP)/NP interests|NNS|N in|IN|(NP\NP)/NP the|DT|NP[nb]/N mechanical|JJ|N/N engineering|NN|N/N industry|NN|N .|.|.
Bailey|NNP|N/N Controls|NNP|N ,|,|, based|VBN|S[pss]\NP in|IN|((S\NP)\(S\NP))/NP Wickliffe|NNP|N ,|,|, Ohio|NNP|N ,|,|, makes|VBZ|(S[dcl]\NP)/NP computerized|JJ|N/N industrial|JJ|N/N controls|NNS|N/N systems|NNS|N .|.|.
It|PRP|NP employs|VBZ|(S[dcl]\NP)/NP 2,700|CD|N/N people|NNS|N and|CC|conj has|VBZ|(S[dcl]\NP)/NP annual|JJ|N/N revenue|NN|N of|IN|(NP\NP)/NP about|RB|N/N $|$|N/N[num] 370|CD|N/N million|CD|N[num] .|.|.
The|DT|NP[nb]/N federal|JJ|N/N government|NN|N suspended|VBD|(S[dcl]\NP)/NP sales|NNS|N of|IN|(NP\NP)/NP U.S.|NNP|N/N savings|NNS|N/N bonds|NNS|N because|IN|(NP\NP)/NP Congress|NNP|N has|VBZ|(S[dcl]\NP)/(S[pt]\NP) n't|RB|(S\NP)\(S\NP) lifted|VBN|(S[pt]\NP)/NP the|DT|NP[nb]/N ceiling|NN|N on|IN|(NP\NP)/NP government|NN|N/N debt|NN|N .|.|.
Until|IN|(S/S)/NP Congress|NNP|N/N acts|NNS|N ,|,|, the|DT|NP[nb]/N government|NN|N has|VBZ|(S[dcl]\NP)/(S[pt]\NP) n't|RB|(S\NP)\(S\NP) any|DT|NP[nb]/N authority|NN|N to|TO|(S[to]\NP)/(S[b]\NP) issue|VB|(S[b]\NP)/NP new|JJ|N/N debt|NN|N/N obligations|NNS|N of|IN|(NP\NP)/NP any|DT|NP[nb]/N kind|NN|N ,|,|, the|DT|NP[nb]/N Treasury|NNP|N said|VBD|(S[dcl]\S[dcl])\NP .|.|.
The|DT|NP[nb]/N government|NN|N 's|POS|(NP[nb]/N)\NP borrowing|NN|N/N authority|NN|N dropped|VBD|S[dcl]\NP at|IN|((S\NP)\(S\NP))/NP midnight|NN|N/N Tuesday|NNP|N to|TO|(NP\NP)/NP $|$|N/N[num] 2.80|CD|N/N trillion|CD|N[num] from|IN|(NP\NP)/NP $|$|N/N[num] 2.87|CD|N/N trillion|CD|N[num] .|.|.
Legislation|NN|N to|TO|(S[to]\NP)/(S[b]\NP) lift|VB|(S[b]\NP)/NP the|DT|NP[nb]/N debt|NN|N/N ceiling|NN|N is|VBZ|(S[dcl]\NP)/(S[pss]\NP) ensnarled|VBN|S[pss]\NP in|IN|((S\NP)\(S\NP))/NP the|DT|NP[nb]/N fight|NN|N over|IN|((S\NP)\(S\NP))/(S[ng]\NP) cutting|VBG|(S[ng]\NP)/NP capital-gains|JJ|N/N taxes|NNS|N .|.|.
The|DT|NP[nb]/N House|NNP|N has|VBZ|(S[dcl]\NP)/(S[pt]\NP) voted|VBN|(S[pt]\NP)/NP to|TO|(S[to]\NP)/(S[b]\NP) raise|VB|(S[b]\NP)/NP the|DT|NP[nb]/N ceiling|NN|N to|TO|(NP\NP)/NP $|$|N/N[num] 3.1|CD|N/N trillion|CD|N[num] ,|,|, but|CC|conj the|DT|NP[nb]/N Senate|NNP|N is|VBZ|(S[dcl]\NP)/(S[pss]\NP) n't|RB|(S\NP)\(S\NP) expected|VBN|(S[pss]\NP)/(S[to]\NP) to|TO|(S[to]\NP)/(S[b]\NP) act|VB|(S[b]\NP)/PP until|IN|PP/NP next|JJ|N/N week|NN|N at|IN|(NP\NP)/NP the|DT|NP[nb]/N earliest|JJS|N/N .|.|.
The|DT|NP[nb]/N Treasury|NNP|N said|VBD|(S[dcl]\NP)/S[dcl] the|DT|NP[nb]/N U.S.|NNP|N will|MD|(S[dcl]\NP)/(S[b]\NP) default|VB|(S[b]\NP)/PP on|IN|PP/NP Nov.|NNP|N/N 9|CD|N if|IN|(NP\NP)/NP Congress|NNP|N does|VBZ|(S[dcl]\NP)/(S[b]\NP) n't|RB|(S\NP)\(S\NP) act|VB|(S[b]\NP)/PP by|IN|((S\NP)\(S\NP))/NP then|RB|(S\NP)\(S\NP) .|.|.
Clark|NNP|N/N J.|NNP|N/N Vitulli|NNP|N was|VBD|(S[dcl]\NP)/(S[pss]\NP) named|VBN|(S[pss]\NP)/NP senior|JJ|N/N vice|NN|N/N president|NN|N and|CC|conj general|JJ|N/N manager|NN|N of|IN|(NP\NP)/NP this|DT|NP[nb]/N U.S.|NNP|N/N sales|NNS|N and|CC|conj marketing|NN|N/N arm|NN|N of|IN|(NP\NP)/NP Japanese|JJ|N/N auto|NN|N/N maker|NN|N/N Mazda|NNP|N/N Motor|NNP|N/N Corp|NNP|N .|.|.
In|IN|(S/S)/NP the|DT|NP[nb]/N new|JJ|N/N position|NN|N he|PRP|NP will|MD|(S[dcl]\NP)/(S[b]\NP) oversee|VB|(S[b]\NP)/NP Mazda|NNP|N 's|POS|(NP[nb]/N)\NP U.S.|NNP|N/N sales|NNS|N ,|,|, service|NN|N ,|,|, parts|NNS|N and|CC|conj marketing|NN|N/N operations|NNS|N .|.|.
Previously|RB|S/S ,|,|, Mr.|NNP|N/N Vitulli|NNP|N ,|,|, 43|CD|N/N years|NNS|N old|JJ|S[adj]\NP ,|,|, was|VBD|(S[dcl]\NP)/NP general|JJ|N/N marketing|NN|N/N manager|NN|N of|IN|(NP\NP)/NP Chrysler|NNP|N/N Corp.|NNP|N 's|POS|(NP[nb]/N)\NP Chrysler|NNP|N/N division|NN|N .|.|.
He|PRP|NP had|VBD|(S[dcl]\NP)/(S[pt]\NP) been|VBN|(S[pt]\NP)/NP a|DT|NP[nb]/N sales|NNS|N and|CC|conj marketing|NN|N/N executive|NN|N with|IN|(NP\NP)/NP Chrysler|NNP|N for|IN|(NP\NP)/NP 20|CD|N/N years|NNS|N .|.|.
When|WRB|S/S it|PRP|NP 's|VBZ|(S[dcl]\NP)/NP time|NN|N for|IN|(NP\NP)/NP their|PRP$|NP[nb]/N biannual|JJ|N/N powwow|NN|N ,|,|, the|DT|NP[nb]/N nation|NN|N 's|POS|(NP[nb]/N)\NP manufacturing|NN|N/N titans|NNS|N typically|RB|(S\NP)/(S\NP) jet|NN|N off|IN|(NP\NP)/NP to|TO|PP/NP the|DT|NP[nb]/N sunny|JJ|N/N confines|NNS|N of|IN|(NP\NP)/NP resort|NN|N/N towns|NNS|N like|IN|(NP\NP)/NP Boca|NNP|N/N Raton|NNP|N and|CC|conj Hot|NNP|N/N Springs|NNP|N .|.|.
Not|RB|NP/NP this|DT|NP[nb]/N year|NN|N .|.|.
The|DT|NP[nb]/N National|NNP|N/N Association|NNP|N of|IN|(NP\NP)/NP Manufacturers|NNPS|N settled|VBD|(S[dcl]\NP)/PP on|IN|PP/NP the|DT|NP[nb]/N Hoosier|JJR|N/N capital|NN|N of|IN|(NP\NP)/NP Indianapolis|NNP|N for|IN|(NP\NP)/NP its|PRP$|NP[nb]/N fall|NN|N/N board|NN|N/N meeting|NN|N .|.|.
And|CC|S/S the|DT|NP[nb]/N city|NN|N decided|VBD|(S[dcl]\NP)/(S[to]\NP) to|TO|(S[to]\NP)/(S[b]\NP) treat|VB|(S[b]\NP)/NP its|PRP$|NP[nb]/N guests|NNS|N more|RBR|((S\NP)\(S\NP))/((S\NP)\(S\NP)) like|IN|((S\NP)\(S\NP))/NP royalty|NN|N or|CC|conj rock|NN|N/N stars|NNS|N than|IN|(NP\NP)/NP factory|NN|N/N owners|NNS|N .|.|.
The|DT|NP[nb]/N idea|NN|N ,|,|, of|IN|(NP\NP)/NP course|NN|N :|IN|(NP\NP)/NP to|TO|(S[to]\NP)/(S[b]\NP) prove|VB|(S[b]\NP)/NP to|TO|PP/NP 125|CD|N/N corporate|JJ|N/N decision|NN|N/N makers|NNS|N that|IN|S[em]/S[dcl] the|DT|NP[nb]/N buckle|VB|(S[b]\NP)/PP on|IN|PP/NP the|DT|NP[nb]/N Rust|NNP|N/N Belt|NNP|N is|VBZ|(S[dcl]\NP)/NP n't|RB|(S\NP)\(S\NP) so|RB|(S[adj]\NP)/(S[adj]\NP) rusty|JJ|S[adj]\NP after|IN|((S\NP)\(S\NP))/NP all|DT|NP[nb]/N ,|,|, that|IN|S[em]/S[dcl] it|PRP|NP 's|VBZ|(S[dcl]\NP)/NP a|DT|NP[nb]/N good|JJ|N/N place|NN|N for|IN|(NP\NP)/NP a|DT|NP[nb]/N company|NN|N to|TO|(S[to]\NP)/(S[b]\NP) expand|VB|S[b]\NP .|.|.
On|IN|(S/S)/NP the|DT|NP[nb]/N receiving|NN|N/N end|NN|N of|IN|(NP\NP)/NP the|DT|NP[nb]/N message|NN|N were|VBD|(S[dcl]\NP)/NP officials|NNS|N from|IN|(NP\NP)/NP giants|NNS|N like|IN|(NP\NP)/NP Du|NNP|N/N Pont|NNP|N and|CC|conj Maytag|NNP|N ,|,|, along|IN|((S\NP)/(S\NP))/NP with|IN|PP/NP lesser|JJR|N/N knowns|NNS|N like|IN|(NP\NP)/NP Trojan|NNP|N/N Steel|NNP|N and|CC|conj the|DT|NP[nb]/N Valley|NNP|N/N Queen|NNP|N/N Cheese|NNP|N/N Factory|NN|N .|.|.
For|IN|(S/S)/NP starters|NNS|N ,|,|, the|DT|NP[nb]/N executives|NNS|N joined|VBD|(S[dcl]\NP)/S[dcl] Mayor|NNP|N/N William|NNP|N/N H.|NNP|N/N Hudnut|NNP|N/N III|NNP|N for|IN|((S\NP)\(S\NP))/NP an|DT|NP[nb]/N evening|NN|N of|IN|(NP\NP)/NP the|DT|NP[nb]/N Indianapolis|NNP|N/N Symphony|NNP|N/N Orchestra|NNP|N and|CC|conj a|DT|NP[nb]/N guest|NN|N/N pianist-comedian|NN|N/N Victor|NNP|N/N Borge|NNP|N .|.|.
Champagne|NNP|N and|CC|conj dessert|NN|N followed|VBD|S[dcl]\NP .|.|.
The|DT|NP[nb]/N next|JJ|N/N morning|NN|N ,|,|, with|IN|((S\NP)\(S\NP))/NP a|DT|NP[nb]/N police|NN|N/N escort|NN|N ,|,|, busloads|NNS|N of|IN|(NP\NP)/NP executives|NNS|N and|CC|conj their|PRP$|NP[nb]/N wives|NNS|N raced|VBD|(S[dcl]\NP)/PP to|TO|PP/NP the|DT|NP[nb]/N Indianapolis|NNP|N/N Motor|NNP|N/N Speedway|NNP|N ,|,|, unimpeded|VBN|S[pss]\NP by|IN|((S\NP)\(S\NP))/NP traffic|NN|N or|CC|conj red|JJ|N/N lights|NNS|N .|.|.
The|DT|NP[nb]/N governor|NN|N could|MD|(S[dcl]\NP)/(S[b]\NP) n't|RB|(S\NP)\(S\NP) make|VB|(S[b]\NP)/NP it|PRP|NP ,|,|, so|IN|((S\NP)\(S\NP))/NP the|DT|NP[nb]/N lieutenant|NN|N/N governor|NN|N welcomed|VBD|(S[dcl]\NP)/NP the|DT|NP[nb]/N special|JJ|N/N guests|NNS|N .|.|.
A|DT|NP[nb]/N buffet|NN|N/N breakfast|NN|N was|VBD|(S[dcl]\NP)/(S[pss]\NP) held|VBN|S[pss]\NP in|IN|((S\NP)\(S\NP))/NP the|DT|NP[nb]/N museum|NN|N ,|,|, where|WRB|N/N food|NN|N and|CC|conj drinks|NNS|N are|VBP|(S[dcl]\NP)/(S[pss]\NP) banned|VBN|(S[pss]\NP)/PP to|TO|PP/NP everyday|JJ|N/N visitors|NNS|N .|.|.
Then|RB|S/S ,|,|, in|IN|((S\NP)\(S\NP))/NP the|DT|NP[nb]/N guests|NNS|N '|POS|(NP[nb]/N)\NP honor|NN|N ,|,|, the|DT|NP[nb]/N speedway|NN|N hauled|VBD|(S[dcl]\NP)/NP out|RP|(S\NP)\(S\NP) four|CD|N/N drivers|NNS|N ,|,|, crews|NNS|N and|CC|conj even|RB|NP/NP the|DT|NP[nb]/N official|JJ|N/N Indianapolis|NNP|N/N 500|CD|N/N announcer|NN|N for|IN|((S\NP)\(S\NP))/NP a|DT|NP[nb]/N 10-lap|JJ|N/N exhibition|NN|N/N race|NN|N .|.|.
After|IN|(S/S)/NP the|DT|NP[nb]/N race|NN|N ,|,|, Fortune|NNP|N/N 500|CD|N/N executives|NNS|N drooled|VBD|(S[dcl]\NP)/PP like|IN|PP/NP schoolboys|NNS|N over|IN|(NP\NP)/NP the|DT|NP[nb]/N cars|NNS|N and|CC|conj drivers|NNS|N .|.|.
No|DT|NP[nb]/N dummies|NNS|N ,|,|, the|DT|NP[nb]/N drivers|NNS|N pointed|VBD|(S[dcl]\NP)/NP out|RP|(S\NP)\(S\NP) they|PRP|NP still|RB|(S\NP)/(S\NP) had|VBD|(S[dcl]\NP)/NP space|NN|N on|IN|(NP\NP)/NP their|PRP$|NP[nb]/N machines|NNS|N for|IN|(NP\NP)/NP another|DT|NP[nb]/N sponsor|NN|N 's|POS|(NP[nb]/N)\NP name|NN|N or|CC|conj two|CD|N .|.|.
Back|RB|N/N downtown|NN|N ,|,|, the|DT|NP[nb]/N execs|NNS|N squeezed|VBN|S[pss]\NP in|IN|((S\NP)\(S\NP))/NP a|DT|NP[nb]/N few|JJ|N/N meetings|NNS|N at|IN|(NP\NP)/NP the|DT|NP[nb]/N hotel|NN|N before|IN|((S\NP)\(S\NP))/(S[ng]\NP) boarding|VBG|(S[ng]\NP)/NP the|DT|NP[nb]/N buses|NNS|N again|RB|(S\NP)\(S\NP) .|.|.
This|DT|NP[nb]/N time|NN|N ,|,|, it|PRP|NP was|VBD|(S[dcl]\NP)/NP for|IN|((S\NP)\(S\NP))/NP dinner|NN|N and|CC|conj dancing|NN|N --|IN|(NP\NP)/NP a|DT|NP[nb]/N block|NN|N away|RB|(S\NP)\(S\NP) .|.|.
Under|IN|(S/S)/NP the|DT|NP[nb]/N stars|NNS|N and|CC|conj moons|NNS|N of|IN|(NP\NP)/NP the|DT|NP[nb]/N renovated|VBN|N/N Indiana|NNP|N/N Roof|NNP|N/N ballroom|NN|N ,|,|, nine|CD|N of|IN|(NP\NP)/NP the|DT|NP[nb]/N hottest|JJS|N/N chefs|NNS|N in|IN|(NP\NP)/NP town|NN|N fed|VBD|(S[dcl]\NP)/S[dcl] them|PRP|NP Indiana|NNP|N/N duckling|VBG|N/N mousseline|NN|N ,|,|, lobster|NN|N/N consomme|NN|N ,|,|, veal|JJ|N/N mignon|NN|N and|CC|conj chocolate|VB|(S[b]\NP)/NP terrine|NN|N with|IN|((S\NP)\(S\NP))/NP a|DT|NP[nb]/N raspberry|NN|N/N sauce|NN|N .|.|.
Knowing|VBG|(S[ng]\NP)/NP a|DT|NP[nb]/N tasty|NN|N --|:|: and|CC|conj free|JJ|S[adj]\NP --|:|: meal|NN|N when|WRB|(S[dcl]\NP)/S[dcl] they|PRP|NP eat|VBP|(S[dcl]\NP)/NP one|CD|N ,|,|, the|DT|NP[nb]/N executives|NNS|N gave|VBD|(S[dcl]\NP)/NP the|DT|NP[nb]/N chefs|NNS|N a|DT|NP[nb]/N standing|NN|N/N ovation|NN|N .|.|.
More|JJR|S[adj]\NP than|IN|((S[adj]\NP)\(S[adj]\NP))/NP a|DT|NP[nb]/N few|JJ|N/N CEOs|NNS|N say|VBP|(S[dcl]\NP)/NP the|DT|NP[nb]/N red-carpet|NN|N/N treatment|NN|N tempts|VBZ|(S[dcl]\NP)/NP them|PRP|NP to|TO|(S[to]\NP)/(S[b]\NP) return|VB|(S[b]\NP)/NP to|TO|PP/NP a|DT|NP[nb]/N heartland|JJ|N/N city|NN|N for|IN|(NP\NP)/NP future|JJ|N/N meetings|NNS|N .|.|.
But|CC|S/S for|IN|(S/S)/NP now|RB|S[adj]\NP ,|,|, they|PRP|NP 're|VBP|(S[dcl]\NP)/(S[ng]\NP) looking|VBG|S[ng]\NP forward|RB|(S\NP)\(S\NP) to|TO|PP/NP their|PRP$|NP[nb]/N winter|NN|N/N meeting|NN|N --|:|(NP\NP)/NP Boca|NNP|N in|IN|(NP\NP)/NP February|NNP|N .|.|.
South|NNP|N/N Korea|NNP|N registered|VBD|(S[dcl]\NP)/NP a|DT|NP[nb]/N trade|NN|N/N deficit|NN|N of|IN|(NP\NP)/NP $|$|N/N[num] 101|CD|N/N million|CD|N[num] in|IN|(NP\NP)/NP October|NNP|N ,|,|, reflecting|VBG|(S[ng]\NP)/NP the|DT|NP[nb]/N country|NN|N 's|POS|(NP[nb]/N)\NP economic|JJ|N/N sluggishness|NN|N ,|,|, according|VBG|(S[ng]\NP)/NP to|TO|PP/NP government|NN|N/N figures|NNS|N released|VBN|S[pss]\NP Wednesday|NNP|N .|.|.
Preliminary|JJ|N/N tallies|NNS|N by|IN|(NP\NP)/NP the|DT|NP[nb]/N Trade|NNP|N/N and|CC|conj Industry|NNP|N/N Ministry|NNP|N showed|VBD|(S[dcl]\NP)/NP another|DT|NP[nb]/N trade|NN|N/N deficit|NN|N in|IN|(NP\NP)/NP October|NNP|N ,|,|, the|DT|NP[nb]/N fifth|JJ|N/N monthly|JJ|N/N setback|NN|N this|DT|NP[nb]/N year|NN|N ,|,|, casting|VBG|(S[ng]\NP)/NP a|DT|NP[nb]/N cloud|NN|N on|IN|(NP\NP)/NP South|NNP|N/N Korea|NNP|N 's|POS|(NP[nb]/N)\NP export-oriented|JJ|N/N economy|NN|N .|.|.
Exports|NNS|N in|IN|(NP\NP)/NP October|NNP|N stood|VBD|(S[dcl]\NP)/PP at|IN|PP/NP $|$|N/N[num] 5.29|CD|N/N billion|CD|N[num] ,|,|, a|DT|NP[nb]/N mere|JJ|N/N 0.7|CD|N/N %|NN|N/N increase|NN|N from|IN|(NP\NP)/NP a|DT|NP[nb]/N year|NN|N/N earlier|RBR|N ,|,|, while|IN|(NP\NP)/NP imports|NNS|N increased|VBD|(S[dcl]\NP)/(S[adj]\NP) sharply|RB|(S\NP)\(S\NP) to|TO|PP/NP $|$|N/N[num] 5.39|CD|N/N billion|CD|N[num] ,|,|, up|RB|(N/N)/(N/N) 20|CD|N/N %|NN|N from|IN|(NP\NP)/NP last|JJ|N/N October|NNP|N .|.|.
South|NNP|N/N Korea|NNP|N 's|POS|(NP[nb]/N)\NP economic|JJ|N/N boom|NN|N ,|,|, which|WDT|(NP\NP)/(S[dcl]\NP) began|VBD|S[dcl]\NP in|IN|((S\NP)\(S\NP))/NP 1986|CD|N ,|,|, stopped|VBD|(S[dcl]\NP)/NP this|DT|NP[nb]/N year|NN|N because|IN|(NP\NP)/NP of|IN|PP/NP prolonged|JJ|N/N labor|NN|N/N disputes|NNS|N ,|,|, trade|NN|N/N conflicts|NNS|N and|CC|conj sluggish|JJ|N/N exports|NNS|N .|.|.
Government|NN|N/N officials|NNS|N said|VBD|(S[dcl]\NP)/S[dcl] exports|NNS|N at|IN|(NP\NP)/NP the|DT|NP[nb]/N end|NN|N of|IN|(NP\NP)/NP the|DT|NP[nb]/N year|NN|N would|MD|(S[dcl]\NP)/(S[b]\NP) remain|VB|S[b]\NP under|IN|((S\NP)\(S\NP))/NP a|DT|NP[nb]/N government|NN|N/N target|NN|N of|IN|(NP\NP)/NP $|$|N/N[num] 68|CD|N/N billion|CD|N[num] .|.|.
Despite|IN|(S/S)/NP the|DT|NP[nb]/N gloomy|JJ|N/N forecast|NN|N ,|,|, South|NNP|N/N Korea|NNP|N has|VBZ|(S[dcl]\NP)/(S[pt]\NP) recorded|VBN|(S[pt]\NP)/NP a|DT|NP[nb]/N trade|NN|N/N surplus|NN|N of|IN|(NP\NP)/NP $|$|N/N[num] 71|CD|N/N million|CD|N[num] so|RB|((S\NP)\(S\NP))/((S\NP)\(S\NP)) far|RB|(S\NP)\(S\NP) this|DT|NP[nb]/N year|NN|N .|.|.
From|IN|(S/S)/NP January|NNP|N to|TO|(NP\NP)/NP October|NNP|N ,|,|, the|DT|NP[nb]/N nation|NN|N 's|POS|(NP[nb]/N)\NP accumulated|VBN|N/N exports|NNS|N increased|VBD|(S[dcl]\NP)/NP 4|CD|N/N %|NN|N from|IN|(NP\NP)/NP the|DT|NP[nb]/N same|JJ|N/N period|NN|N/N last|JJ|N/N year|NN|N to|TO|(NP\NP)/NP $|$|N/N[num] 50.45|CD|N/N billion|CD|N[num] .|.|.
Imports|NNS|N were|VBD|(S[dcl]\NP)/PP at|IN|PP/NP $|$|N/N[num] 50.38|CD|N/N billion|CD|N[num] ,|,|, up|RB|(N/N)/(N/N) 19|CD|N/N %|NN|N .|.|.
Newsweek|NNP|N ,|,|, trying|VBG|(S[ng]\NP)/(S[to]\NP) to|TO|(S[to]\NP)/(S[b]\NP) keep|VB|(S[b]\NP)/NP pace|NN|N with|IN|((S\NP)\(S\NP))/NP rival|JJ|N/N Time|NNP|N/N magazine|NN|N ,|,|, announced|VBD|(S[dcl]\NP)/NP new|JJ|N/N advertising|NN|N/N rates|NNS|N for|IN|(NP\NP)/NP 1990|CD|N and|CC|conj said|VBD|(S[dcl]\NP)/S[dcl] it|PRP|NP will|MD|(S[dcl]\NP)/(S[b]\NP) introduce|VB|(S[b]\NP)/NP a|DT|NP[nb]/N new|JJ|N/N incentive|NN|N/N plan|NN|N for|IN|(NP\NP)/NP advertisers|NNS|N .|.|.
The|DT|NP[nb]/N new|JJ|N/N ad|NN|N/N plan|NN|N from|IN|(NP\NP)/NP Newsweek|NNP|N ,|,|, a|DT|NP[nb]/N unit|NN|N of|IN|(NP\NP)/NP the|DT|NP[nb]/N Washington|NNP|N/N Post|NNP|N/N Co.|NNP|N ,|,|, is|VBZ|(S[dcl]\NP)/NP the|DT|NP[nb]/N second|JJ|N/N incentive|NN|N/N plan|NN|N the|DT|NP[nb]/N magazine|NN|N has|VBZ|(S[dcl]\NP)/(S[pt]\NP) offered|VBN|(S[pt]\NP)/NP advertisers|NNS|N in|IN|((S\NP)\(S\NP))/NP three|CD|N/N years|NNS|N .|.|.
Plans|NNS|N that|WDT|(NP\NP)/(S[dcl]\NP) give|VBP|(S[dcl]\NP)/NP advertisers|NNS|N/N discounts|NNS|N for|IN|(NP\NP)/NP maintaining|VBG|N/N or|CC|conj increasing|VBG|N/N ad|NN|N/N spending|NN|N have|VBP|(S[dcl]\NP)/(S[pt]\NP) become|VBN|(S[pt]\NP)/NP permanent|JJ|N/N fixtures|NNS|N at|IN|(NP\NP)/NP the|DT|NP[nb]/N news|NN|N/N weeklies|NNS|N and|CC|conj underscore|VB|(S[b]\NP)/NP the|DT|NP[nb]/N fierce|JJ|N/N competition|NN|N between|IN|(NP\NP)/NP Newsweek|NNP|N ,|,|, Time|NNP|N/N Warner|NNP|N/N Inc.|NNP|N 's|POS|(NP[nb]/N)\NP Time|NNP|N/N magazine|NN|N ,|,|, and|CC|conj Mortimer|NNP|N/N B.|NNP|N/N Zuckerman|NNP|N 's|POS|(NP[nb]/N)\NP U.S.|NNP|N/N News|NNP|N/N &|CC|N/N World|NNP|N/N Report|NNP|N .|.|.
Alan|NNP|N/N Spoon|NNP|N ,|,|, recently|RB|(S\NP)/(S\NP) named|VBN|S[pss]\NP Newsweek|NNP|N/N president|NN|N ,|,|, said|VBD|(S[dcl]\NP)/S[dcl] Newsweek|NNP|N 's|POS|(NP[nb]/N)\NP ad|NN|N/N rates|NNS|N would|MD|(S[dcl]\NP)/(S[b]\NP) increase|VB|(S[b]\NP)/NP 5|CD|N/N %|NN|N in|IN|((S\NP)\(S\NP))/NP January|NNP|N .|.|.
A|DT|NP[nb]/N full|JJ|N/N ,|,|, four-color|JJ|N/N page|NN|N in|IN|(NP\NP)/NP Newsweek|NNP|N will|MD|(S[dcl]\NP)/(S[b]\NP) cost|VB|(S[b]\NP)/NP $|$|N/N[num] 100,980|CD|N[num] .|.|.
In|IN|(S/S)/NP mid-October|NNP|N ,|,|, Time|NNP|N/N magazine|NN|N lowered|VBD|(S[dcl]\NP)/NP its|PRP$|NP[nb]/N guaranteed|JJ|N/N circulation|NN|N/N rate|NN|N/N base|NN|N for|IN|(NP\NP)/NP 1990|CD|N while|IN|(NP\NP)/NP not|RB|(N/N)/(N/N) increasing|VBG|N/N ad|NN|N/N page|NN|N/N rates|NNS|N ;|;|; with|IN|((S\NP)\(S\NP))/NP a|DT|NP[nb]/N lower|JJR|N/N circulation|NN|N/N base|NN|N ,|,|, Time|NNP|N 's|POS|(NP[nb]/N)\NP ad|NN|N/N rate|NN|N will|MD|(S[dcl]\NP)/(S[b]\NP) be|VB|(S[b]\NP)/(S[adj]\NP) effectively|RB|(N/N)/(N/N) 7.5|CD|N/N %|NN|N higher|JJR|S[adj]\NP per|IN|((S[adj]\NP)\(S[adj]\NP))/NP subscriber|NN|N ;|;|; a|DT|NP[nb]/N full|JJ|N/N page|NN|N in|IN|(NP\NP)/NP Time|NN|N/N costs|NNS|N about|IN|(NP\NP)/NP $|$|N/N[num] 120,000|CD|N[num] .|.|.
U.S.|NNP|N/N News|NNP|N has|VBZ|(S[dcl]\NP)/(S[pt]\NP) yet|RB|(S\NP)\(S\NP) to|TO|(S[to]\NP)/(S[b]\NP) announce|VB|(S[b]\NP)/NP its|PRP$|NP[nb]/N 1990|CD|N/N ad|NN|N/N rates|NNS|N .|.|.
Newsweek|NNP|N said|VBD|(S[dcl]\NP)/S[dcl] it|PRP|NP will|MD|(S[dcl]\NP)/(S[b]\NP) introduce|VB|(S[b]\NP)/NP the|DT|NP[nb]/N Circulation|NNP|N/N Credit|NNP|N/N Plan|NNP|N ,|,|, which|WDT|(NP\NP)/(S[dcl]\NP) awards|VBZ|(S[dcl]\NP)/NP space|NN|N/N credits|NNS|N to|TO|(NP\NP)/NP advertisers|NNS|N on|IN|(NP\NP)/NP renewal|NN|N/N advertising|NN|N .|.|.
The|DT|NP[nb]/N magazine|NN|N will|MD|(S[dcl]\NP)/(S[b]\NP) reward|VB|(S[b]\NP)/PP with|IN|PP/NP page|NN|N/N bonuses|NNS|N advertisers|NNS|N who|WP|(NP\NP)/(S[dcl]\NP) in|IN|((S\NP)\(S\NP))/NP 1990|CD|N meet|VBP|(S[dcl]\NP)/NP or|CC|conj exceed|VBP|(S[dcl]\NP)/NP their|PRP$|NP[nb]/N 1989|CD|N/N spending|NN|N ,|,|, as|RB|((S\NP)\(S\NP))/((S\NP)\(S\NP)) long|RB|(S\NP)\(S\NP) as|IN|((S\NP)\(S\NP))/S[dcl] they|PRP|NP spent|VBD|(S[dcl]\NP)/NP $|$|N/N[num] 325,000|CD|N[num] in|IN|(NP\NP)/NP 1989|CD|N/N and|CC|conj $|$|N/N[num] 340,000|CD|N[num] in|IN|((S\NP)\(S\NP))/NP 1990|CD|N .|.|.
Mr.|NNP|N/N Spoon|NNP|N said|VBD|(S[dcl]\NP)/S[dcl] the|DT|NP[nb]/N plan|NN|N is|VBZ|(S[dcl]\NP)/NP not|RB|(S\NP)\(S\NP) an|DT|NP[nb]/N attempt|NN|N to|TO|(S[to]\NP)/(S[b]\NP) shore|VB|(S[b]\NP)/NP up|RP|(S\NP)\(S\NP) a|DT|NP[nb]/N decline|NN|N in|IN|(NP\NP)/NP ad|NN|N/N pages|NNS|N in|IN|(NP\NP)/NP the|DT|NP[nb]/N first|JJ|N/N nine|CD|N/N months|NNS|N of|IN|(NP\NP)/NP 1989|CD|N ;|;|; Newsweek|NNP|N 's|POS|(NP[nb]/N)\NP ad|NN|N/N pages|NNS|N totaled|VBD|(S[dcl]\NP)/NP 1,620|CD|N ,|,|, a|DT|NP[nb]/N drop|NN|N of|IN|(NP\NP)/NP 3.2|CD|N/N %|NN|N from|IN|(NP\NP)/NP last|JJ|N/N year|NN|N ,|,|, according|VBG|(S[ng]\NP)/NP to|TO|PP/NP Publishers|NNP|N/N Information|NNP|N/N Bureau|NNP|N .|.|.
What|WP|NP/(S[dcl]/NP) matters|VBZ|(S[dcl]\NP)/NP is|VBZ|(S[dcl]\NP)/NP what|WP|NP/(S[dcl]/NP) advertisers|NNS|N are|VBP|(S[dcl]\NP)/(S[ng]\NP) paying|VBG|S[ng]\NP per|IN|((S\NP)\(S\NP))/NP page|NN|N ,|,|, and|CC|conj in|IN|(NP\NP)/NP that|DT|NP[nb]/N department|NN|N we|PRP|NP are|VBP|(S[dcl]\NP)/(S[ng]\NP) doing|VBG|S[ng]\NP fine|JJ|N/N this|DT|NP[nb]/N fall|NN|N ,|,|, said|VBD|(S[dcl]\S[dcl])/NP Mr.|NNP|N/N Spoon|NNP|N .|.|.
Both|DT|NP[nb]/N Newsweek|NNP|N/N and|CC|conj U.S.|NNP|N/N News|NNS|N have|VBP|(S[dcl]\NP)/(S[pt]\NP) been|VBN|(S[pt]\NP)/NP gaining|VBG|N/N circulation|NN|N in|IN|((S\NP)\(S\NP))/NP recent|JJ|N/N years|NNS|N without|IN|(NP\NP)/NP heavy|JJ|N/N use|NN|N of|IN|(NP\NP)/NP electronic|JJ|N/N giveaways|NNS|N to|TO|(NP\NP)/NP subscribers|NNS|N ,|,|, such|JJ|(NP\NP)/(NP\NP) as|IN|(NP\NP)/NP telephones|NNS|N or|CC|conj watches|NNS|N .|.|.
However|RB|S/S ,|,|, none|NN|N of|IN|(NP\NP)/NP the|DT|NP[nb]/N big|JJ|N/N three|CD|N/N weeklies|NNS|N recorded|VBN|S[pss]\NP circulation|NN|N/N gains|NNS|N recently|RB|(S\NP)\(S\NP) .|.|.
According|VBG|(S[ng]\NP)/(S[to]\NP) to|TO|PP/NP Audit|NNP|N/N Bureau|NNP|N of|IN|(NP\NP)/NP Circulations|NNP|N ,|,|, Time|NNP|N ,|,|, the|DT|NP[nb]/N largest|JJS|N/N newsweekly|NN|N ,|,|, had|VBD|(S[dcl]\NP)/NP average|JJ|N/N circulation|NN|N of|IN|(NP\NP)/NP 4,393,237|CD|N ,|,|, a|DT|NP[nb]/N decrease|NN|N of|IN|(NP\NP)/NP 7.3|CD|N/N %|NN|N .|.|.
Newsweek|NNP|N 's|POS|(NP[nb]/N)\NP circulation|NN|N for|IN|(NP\NP)/NP the|DT|NP[nb]/N first|JJ|N/N six|CD|N/N months|NNS|N of|IN|(NP\NP)/NP 1989|CD|N was|VBD|(S[dcl]\NP)/NP 3,288,453|CD|N ,|,|, flat|JJ|S[adj]\NP from|IN|((S[adj]\NP)\(S[adj]\NP))/NP the|DT|NP[nb]/N same|JJ|N/N period|NN|N/N last|JJ|N/N year|NN|N .|.|.
U.S.|NNP|N/N News|NNP|N '|POS|(NP[nb]/N)\NP circulation|NN|N in|IN|((S\NP)\(S\NP))/NP the|DT|NP[nb]/N same|JJ|N/N time|NN|N was|VBD|(S[dcl]\NP)/NP 2,303,328|CD|N ,|,|, down|RB|(N/N)/(N/N) 2.6|CD|N/N %|NN|N .|.|.
The|DT|NP[nb]/N move|NN|N leaves|VBZ|(S[dcl]\NP)/NP United|NNP|N/N Illuminating|NNP|N/N Co.|NNP|N and|CC|conj Northeast|NNP|N/N Utilities|NNPS|N as|IN|(NP\NP)/NP the|DT|NP[nb]/N remaining|VBG|N/N outside|JJ|N/N bidders|NNS|N for|IN|(NP\NP)/NP PS|NNP|N of|IN|(NP\NP)/NP New|NNP|N/N Hampshire|NNP|N ,|,|, which|WDT|(NP\NP)/(S[dcl]\NP) also|RB|(S\NP)/(S\NP) has|VBZ|(S[dcl]\NP)/(S[pt]\NP) proposed|VBN|(S[pt]\NP)/NP an|DT|NP[nb]/N internal|JJ|N/N reorganization|NN|N/N plan|NN|N in|IN|(NP\NP)/NP Chapter|NNP|N 11|CD|N/N bankruptcy|NN|N/N proceedings|NNS|N under|IN|(NP\NP)/NP which|WDT|(NP\NP)/(S[dcl]\NP) it|PRP|NP would|MD|(S[dcl]\NP)/(S[b]\NP) remain|VB|(S[b]\NP)/NP an|DT|NP[nb]/N independent|JJ|N/N company|NN|N .|.|.
New|NNP|N/N England|NNP|N/N Electric|NNP|N ,|,|, based|VBN|S[pss]\NP in|IN|((S\NP)\(S\NP))/NP Westborough|NNP|N ,|,|, Mass.|NNP|N ,|,|, had|VBD|(S[dcl]\NP)/(S[pss]\NP) offered|VBN|S[pss]\NP $|$|N/N[num] 2|CD|N/N billion|CD|N[num] to|TO|(S[to]\NP)/(S[b]\NP) acquire|VB|(S[b]\NP)/NP PS|NNP|N of|IN|(NP\NP)/NP New|NNP|N/N Hampshire|NNP|N ,|,|, well|RB|((S\NP)\(S\NP))/((S\NP)\(S\NP)) below|IN|((S\NP)\(S\NP))/NP the|DT|NP[nb]/N $|$|N/N[num] 2.29|CD|N/N billion|CD|N/N value|NN|N/N United|NNP|N/N Illuminating|NNP|N/N places|NNS|N on|IN|(NP\NP)/NP its|PRP$|NP[nb]/N bid|NN|N and|CC|conj the|DT|NP[nb]/N $|$|N/N[num] 2.25|CD|N/N billion|CD|N[num] Northeast|NNP|N says|VBZ|(S[dcl]\NP)/NP its|PRP$|NP[nb]/N bid|NN|N is|VBZ|(S[dcl]\NP)/(S[adj]\NP) worth|JJ|S[adj]\NP .|.|.
United|NNP|N/N Illuminating|NNP|N is|VBZ|(S[dcl]\NP)/(S[pss]\NP) based|VBN|S[pss]\NP in|IN|((S\NP)\(S\NP))/NP New|NNP|N/N Haven|NNP|N ,|,|, Conn.|NNP|N ,|,|, and|CC|conj Northeast|NNP|N is|VBZ|(S[dcl]\NP)/(S[pss]\NP) based|VBN|S[pss]\NP in|IN|((S\NP)\(S\NP))/NP Hartford|NNP|N ,|,|, Conn|NNP|N .|.|.
PS|NNP|N of|IN|(NP\NP)/NP New|NNP|N/N Hampshire|NNP|N ,|,|, Manchester|NNP|NP\NP ,|,|, N.H.|NNP|NP\NP ,|,|, values|VBZ|(S[dcl]\NP)/NP its|PRP$|NP[nb]/N internal|JJ|N/N reorganization|NN|N/N plan|NN|N at|IN|(NP\NP)/NP about|IN|N/N $|$|N/N[num] 2.2|CD|N/N billion|CD|N[num] .|.|.
John|NNP|N/N Rowe|NNP|N ,|,|, president|NN|N and|CC|conj chief|JJ|N/N executive|JJ|N/N officer|NN|N of|IN|(NP\NP)/NP New|NNP|N/N England|NNP|N/N Electric|NNP|N ,|,|, said|VBD|(S[dcl]\NP)/S[dcl] the|DT|NP[nb]/N company|NN|N 's|POS|(NP[nb]/N)\NP return|NN|N on|IN|(NP\NP)/NP equity|NN|N could|MD|(S[dcl]\NP)/(S[b]\NP) suffer|VB|S[b]\NP if|IN|((S\NP)\(S\NP))/S[dcl] it|PRP|NP made|VBD|(S[dcl]\NP)/NP a|DT|NP[nb]/N higher|JJR|N/N bid|NN|N and|CC|conj its|PRP$|NP[nb]/N forecasts|NNS|N related|VBN|(S[pss]\NP)/PP to|TO|PP/NP PS|NNP|N of|IN|(NP\NP)/NP New|NNP|N/N Hampshire|NNP|N --|:|: such|JJ|(NP\NP)/(NP\NP) as|IN|(NP\NP)/NP growth|NN|N in|IN|(NP\NP)/NP electricity|NN|N/N demand|NN|N and|CC|conj improved|VBN|N/N operating|NN|N/N efficiencies|NNS|N --|:|: did|VBD|(S[dcl]\NP)/(S[to]\NP) n't|RB|(S\NP)\(S\NP) come|VB|(S[b]\NP)/NP true|JJ|S[adj]\NP .|.|.
When|WRB|(S/S)/S[dcl] we|PRP|NP evaluated|VBD|(S[dcl]\NP)/(S[ng]\NP) raising|VBG|(S[ng]\NP)/NP our|PRP$|NP[nb]/N bid|NN|N ,|,|, the|DT|NP[nb]/N risks|NNS|N seemed|VBD|S[dcl]\NP substantial|JJ|S[adj]\NP and|CC|conj persistent|JJ|(S[adj]\NP)/PP over|IN|PP/NP the|DT|NP[nb]/N next|JJ|N/N five|CD|N/N years|NNS|N ,|,|, and|CC|conj the|DT|NP[nb]/N rewards|NNS|N seemed|VBD|(S[dcl]\NP)/NP a|DT|NP[nb]/N long|JJ|N/N way|NN|N out|IN|(NP\NP)/NP .|.|.
That|DT|NP got|VBD|(S[dcl]\NP)/(S[adj]\NP) hard|JJ|(S[adj]\NP)/(S[to]\NP) to|TO|(S[to]\NP)/(S[b]\NP) take|VB|S[b]\NP ,|,|, he|PRP|NP added|VBD|(S[dcl]\S[dcl])\NP .|.|.
Mr.|NNP|N/N Rowe|NNP|N also|RB|(S\NP)/(S\NP) noted|VBD|(S[dcl]\NP)/S[em] that|IN|S[em]/S[dcl] political|JJ|N/N concerns|NNS|N also|RB|(S\NP)/(S\NP) worried|VBD|(S[dcl]\NP)/NP New|NNP|N/N England|NNP|N/N Electric|NNP|N .|.|.
No|DT|NP[nb]/N matter|NN|N who|WP|(NP\NP)/(S[dcl]\NP) owns|VBZ|(S[dcl]\NP)/NP PS|NNP|N of|IN|(NP\NP)/NP New|NNP|N/N Hampshire|NNP|N ,|,|, after|IN|((S\NP)\(S\NP))/S[dcl] it|PRP|NP emerges|VBZ|(S[dcl]\NP)/PP from|IN|PP/NP bankruptcy|NN|N/N proceedings|NNS|N its|PRP$|NP[nb]/N rates|NNS|N will|MD|(S[dcl]\NP)/(S[b]\NP) be|VB|(S[b]\NP)/PP among|IN|PP/NP the|DT|NP[nb]/N highest|JJS|N/N in|IN|((S\NP)\(S\NP))/NP the|DT|NP[nb]/N nation|NN|N ,|,|, he|PRP|NP said|VBD|(S[dcl]\S[dcl])\NP .|.|.
That|DT|NP attracts|VBZ|(S[dcl]\NP)/NP attention|NN|N ...|:|:
it|PRP|NP was|VBD|(S[dcl]\NP)/NP just|RB|(S\NP)\(S\NP) another|DT|NP[nb]/N one|CD|N of|IN|(NP\NP)/NP the|DT|NP[nb]/N risk|NN|N/N factors|NNS|N that|WDT|(NP\NP)/(S[dcl]\NP) led|VBD|S[dcl]\NP to|TO|((S\NP)\(S\NP))/NP the|DT|NP[nb]/N company|NN|N 's|POS|(NP[nb]/N)\NP decision|NN|N to|TO|(S[to]\NP)/(S[b]\NP) withdraw|VB|(S[b]\NP)/PP from|IN|PP/NP the|DT|NP[nb]/N bidding|NN|N ,|,|, he|PRP|NP added|VBD|(S[dcl]\S[dcl])\NP .|.|.
Wilbur|NNP|N/N Ross|NNP|N/N Jr.|NNP|N of|IN|(NP\NP)/NP Rothschild|NNP|N/N Inc.|NNP|N ,|,|, the|DT|NP[nb]/N financial|JJ|N/N adviser|NN|N to|TO|PP/NP the|DT|NP[nb]/N troubled|JJ|N/N company|NN|N 's|POS|(NP[nb]/N)\NP equity|NN|N/N holders|NNS|N ,|,|, said|VBD|(S[dcl]\NP)/S[dcl] the|DT|NP[nb]/N withdrawal|NN|N of|IN|(NP\NP)/NP New|NNP|N/N England|NNP|N/N Electric|NNP|N might|MD|(S[dcl]\NP)/(S[b]\NP) speed|VB|(S[b]\NP)/NP up|RP|(S\NP)\(S\NP) the|DT|NP[nb]/N reorganization|NN|N/N process|NN|N .|.|.
The|DT|NP[nb]/N fact|NN|N that|IN|S[em]/S[dcl] New|NNP|N/N England|NNP|N proposed|VBD|(S[dcl]\NP)/NP lower|JJR|N/N rate|NN|N/N increases|NNS|N --|:|(NP\NP)/NP 4.8|CD|N/N %|NN|N over|IN|((S\NP)\(S\NP))/NP seven|CD|N/N years|NNS|N against|IN|((S\NP)\(S\NP))/NP around|IN|(N/N)/(N/N) 5.5|CD|N/N %|NN|N/N boosts|NNS|N proposed|VBN|S[pss]\NP by|IN|((S\NP)\(S\NP))/NP the|DT|NP[nb]/N other|JJ|N/N two|CD|N/N outside|JJ|N/N bidders|NNS|N --|IN|(NP\NP)/NP complicated|JJ|N/N negotiations|NNS|N with|IN|(NP\NP)/NP state|NN|N/N officials|NNS|N ,|,|, Mr.|NNP|N/N Ross|NNP|N asserted|VBD|(S[dcl]\S[dcl])\NP .|.|.
Now|RB|NP/NP the|DT|NP[nb]/N field|NN|N is|VBZ|(S[dcl]\NP)/(S[adj]\NP) less|RBR|(S[adj]\NP)/(S[adj]\NP) cluttered|JJ|S[adj]\NP ,|,|, he|PRP|NP added|VBD|(S[dcl]\S[dcl])\NP .|.|.
Separately|RB|S/S ,|,|, the|DT|NP[nb]/N Federal|NNP|N/N Energy|NNP|N/N Regulatory|NNP|N/N Commission|NNP|N turned|VBD|(S[dcl]\NP)/NP down|RP|(S\NP)\(S\NP) for|IN|((S\NP)\(S\NP))/NP now|RB|NP/NP a|DT|NP[nb]/N request|NN|N by|IN|(NP\NP)/NP Northeast|NNP|N/N seeking|VBG|N/N approval|NN|N of|IN|(NP\NP)/NP its|PRP$|NP[nb]/N possible|JJ|N/N purchase|NN|N of|IN|(NP\NP)/NP PS|NNP|N of|IN|(NP\NP)/NP New|NNP|N/N Hampshire|NNP|N .|.|.
Northeast|NNP|N said|VBD|(S[dcl]\NP)/S[dcl] it|PRP|NP would|MD|(S[dcl]\NP)/(S[b]\NP) refile|VB|(S[b]\NP)/NP its|PRP$|NP[nb]/N request|NN|N and|CC|conj still|RB|(S\NP)/(S\NP) hopes|VBZ|(S[dcl]\NP)/PP for|IN|PP/NP an|DT|NP[nb]/N expedited|VBN|N/N review|NN|N by|IN|(NP\NP)/NP the|DT|NP[nb]/N FERC|NNP|N so|RB|(S\NP)/(S\NP) that|IN|S[em]/S[dcl] it|PRP|NP could|MD|(S[dcl]\NP)/(S[b]\NP) complete|VB|(S[b]\NP)/NP the|DT|NP[nb]/N purchase|NN|N by|IN|((S\NP)\(S\NP))/NP next|JJ|N/N summer|NN|N if|IN|(NP\NP)/NP its|PRP$|NP[nb]/N bid|NN|N is|VBZ|(S[dcl]\NP)/NP the|DT|NP[nb]/N one|CD|N approved|VBN|S[pss]\NP by|IN|((S\NP)\(S\NP))/NP the|DT|NP[nb]/N bankruptcy|NN|N/N court|NN|N .|.|.
PS|NNP|N of|IN|(NP\NP)/NP New|NNP|N/N Hampshire|NNP|N/N shares|NNS|N closed|VBD|(S[dcl]\NP)/NP yesterday|NN|N at|IN|(NP\NP)/NP $|$|N/N[num] 3.75|CD|N[num] ,|,|, off|RB|(N/N)/(N/N) 25|CD|N/N cents|NNS|N ,|,|, in|IN|((S\NP)\(S\NP))/NP New|NNP|N/N York|NNP|N/N Stock|NNP|N/N Exchange|NNP|N/N composite|JJ|N/N trading|NN|N .|.|.
Norman|NNP|N/N Ricken|NNP|N ,|,|, 52|CD|N/N years|NNS|N old|JJ|S[adj]\NP and|CC|conj former|JJ|N/N president|NN|N and|CC|conj chief|NN|N/N operating|VBG|N/N officer|NN|N of|IN|(NP\NP)/NP Toys|NNP|N/N R|NNP|N/N Us|NNP|N/N Inc.|NNP|N ,|,|, and|CC|conj Frederick|NNP|N/N Deane|NNP|N/N Jr.|NNP|N ,|,|, 63|CD|N ,|,|, chairman|NN|N of|IN|(NP\NP)/NP Signet|NNP|N/N Banking|NNP|N/N Corp.|NNP|N ,|,|, were|VBD|(S[dcl]\NP)/(S[pss]\NP) elected|VBN|N/N directors|NNS|N of|IN|(NP\NP)/NP this|DT|NP[nb]/N consumer|NN|N/N electronics|NNS|N and|CC|conj appliances|NNS|N/N retailing|NN|N/N chain|NN|N .|.|.
They|PRP|NP succeed|VBP|(S[dcl]\NP)/NP Daniel|NNP|N/N M.|NNP|N/N Rexinger|NNP|N ,|,|, retired|VBD|(S[dcl]\S[dcl])/NP Circuit|NNP|N/N City|NNP|N/N executive|NN|N/N vice|NN|N/N president|NN|N ,|,|, and|CC|conj Robert|NNP|N/N R.|NNP|N/N Glauber|NNP|N ,|,|, U.S.|NNP|N/N Treasury|NNP|N undersecretary|JJ|S[adj]\NP ,|,|, on|IN|((S\NP)\(S\NP))/NP the|DT|NP[nb]/N 12-member|JJ|N/N board|NN|N .|.|.
Commonwealth|NNP|N/N Edison|NNP|N/N Co.|NNP|N was|VBD|(S[dcl]\NP)/(S[pss]\NP) ordered|VBN|(S[pss]\NP)/PP to|TO|(S[to]\NP)/(S[b]\NP) refund|VB|(S[b]\NP)/PP about|IN|PP/NP $|$|N/N[num] 250|CD|N/N million|CD|N[num] to|TO|PP/NP its|PRP$|NP[nb]/N current|JJ|N/N and|CC|conj former|JJ|N/N ratepayers|NNS|N for|IN|(NP\NP)/NP illegal|JJ|N/N rates|NNS|N collected|VBN|S[pss]\NP for|IN|((S\NP)\(S\NP))/NP cost|NN|N/N overruns|NNS|N on|IN|(NP\NP)/NP a|DT|NP[nb]/N nuclear|JJ|N/N power|NN|N/N plant|NN|N .|.|.
The|DT|NP[nb]/N refund|NN|N was|VBD|(S[dcl]\NP)/PP about|IN|PP/NP $|$|N/N[num] 55|CD|N/N million|CD|N/N more|JJR|N than|IN|(NP\NP)/NP previously|RB|(S\NP)/(S\NP) ordered|VBN|S[pss]\NP by|IN|((S\NP)\(S\NP))/NP the|DT|NP[nb]/N Illinois|NNP|N/N Commerce|NNP|N/N Commission|NNP|N and|CC|conj trade|NN|N/N groups|NNS|N said|VBD|(S[dcl]\NP)/S[dcl] it|PRP|NP may|MD|(S[dcl]\NP)/(S[b]\NP) be|VB|(S[b]\NP)/NP the|DT|NP[nb]/N largest|JJS|N/N ever|RB|(S\NP)/(S\NP) required|VBN|S[pss]\NP of|IN|((S\NP)\(S\NP))/NP a|DT|NP[nb]/N state|NN|N or|CC|conj local|JJ|N/N utility|NN|N .|.|.
State|NN|N/N court|NN|N/N Judge|NNP|N/N Richard|NNP|N/N Curry|NNP|N ordered|VBD|(S[dcl]\NP)/NP Edison|NNP|N to|TO|(S[to]\NP)/(S[b]\NP) make|VB|(S[b]\NP)/NP average|JJ|N/N refunds|NNS|N of|IN|(NP\NP)/NP about|IN|N/N $|$|N/N[num] 45|CD|N[num] to|TO|(N\N)/N $|$|N/N[num] 50|CD|N[num] each|DT|NP[nb]/N to|TO|N/N Edison|NNP|N/N customers|NNS|N who|WP|(NP\NP)/(S[dcl]\NP) have|VBP|(S[dcl]\NP)/(S[pt]\NP) received|VBN|(S[pt]\NP)/NP electric|JJ|N/N service|NN|N since|IN|(NP\NP)/NP April|NNP|N/N 1986|CD|N ,|,|, including|VBG|S[ng]\NP about|IN|((S\NP)\(S\NP))/NP two|CD|(N/N)/(N/N) million|CD|N/N customers|NNS|N who|WP|(NP\NP)/(S[dcl]\NP) have|VBP|(S[dcl]\NP)/(S[pt]\NP) moved|VBN|S[pt]\NP during|IN|((S\NP)\(S\NP))/NP that|DT|NP[nb]/N period|NN|N .|.|.
Judge|NNP|N/N Curry|NNP|N ordered|VBD|(S[dcl]\NP)/NP the|DT|NP[nb]/N refunds|NNS|N to|TO|(S[to]\NP)/(S[b]\NP) begin|VB|(S[b]\NP)/NP Feb.|NNP|N/N 1|CD|N and|CC|conj said|VBD|(S[dcl]\NP)/S[em] that|IN|S[em]/S[dcl] he|PRP|NP would|MD|(S[dcl]\NP)/(S[b]\NP) n't|RB|(S\NP)\(S\NP) entertain|VB|(S[b]\NP)/NP any|DT|NP[nb]/N appeals|NNS|N or|CC|conj other|JJ|N/N attempts|NNS|N to|TO|(S[to]\NP)/(S[b]\NP) block|VB|(S[b]\NP)/NP his|PRP$|NP[nb]/N order|NN|N by|IN|(NP\NP)/NP Commonwealth|NNP|N/N Edison|NNP|N .|.|.
The|DT|NP[nb]/N refund|NN|N/N pool|NN|N ...|:|: may|MD|(S[dcl]\NP)/(S[b]\NP) not|RB|(S\NP)\(S\NP) be|VB|(S[b]\NP)/(S[pss]\NP) held|VBN|S[pss]\NP hostage|NN|N through|IN|(NP\NP)/NP another|DT|NP[nb]/N round|NN|N of|IN|(NP\NP)/NP appeals|NNS|N ,|,|, Judge|NNP|N/N Curry|NNP|N said|VBD|(S[dcl]\S[dcl])\NP .|.|.
Commonwealth|NNP|N/N Edison|NNP|N said|VBD|(S[dcl]\NP)/S[dcl] it|PRP|NP is|VBZ|(S[dcl]\NP)/(S[ng]\NP) already|RB|(S\NP)\(S\NP) appealing|VBG|(S[ng]\NP)/NP the|DT|NP[nb]/N underlying|VBG|N/N commission|NN|N/N order|NN|N and|CC|conj is|VBZ|(S[dcl]\NP)/(S[ng]\NP) considering|VBG|(S[ng]\NP)/NP appealing|VBG|(S[ng]\NP)/NP Judge|NNP|N/N Curry|NNP|N 's|POS|(NP[nb]/N)\NP order|NN|N .|.|.
The|DT|NP[nb]/N exact|JJ|N/N amount|NN|N of|IN|(NP\NP)/NP the|DT|NP[nb]/N refund|NN|N will|MD|(S[dcl]\NP)/(S[b]\NP) be|VB|(S[b]\NP)/(S[pss]\NP) determined|VBN|S[pss]\NP next|JJ|N/N year|NN|N based|VBN|S[pss]\NP on|IN|((S\NP)\(S\NP))/NP actual|JJ|N/N collections|NNS|N made|VBN|S[pss]\NP until|IN|((S\NP)\(S\NP))/NP Dec.|NNP|N/N 31|CD|N of|IN|(NP\NP)/NP this|DT|NP[nb]/N year|NN|N .|.|.
Commonwealth|NNP|N/N Edison|NNP|N said|VBD|(S[dcl]\NP)/S[dcl] the|DT|NP[nb]/N ruling|NN|N could|MD|(S[dcl]\NP)/(S[b]\NP) force|VB|(S[b]\NP)/NP it|PRP|NP to|TO|(S[to]\NP)/(S[b]\NP) slash|VB|(S[b]\NP)/NP its|PRP$|NP[nb]/N 1989|CD|N/N earnings|NNS|N by|IN|((S\NP)\(S\NP))/NP $|$|N/N[num] 1.55|CD|N[num] a|DT|(NP\NP)/N share|NN|N .|.|.
For|IN|(S/S)/NP 1988|CD|N ,|,|, Commonwealth|NNP|N/N Edison|NNP|N reported|VBD|(S[dcl]\NP)/NP earnings|NNS|N of|IN|(NP\NP)/NP $|$|N/N[num] 737.5|CD|N/N million|CD|N[num] ,|,|, or|CC|conj $|$|N/N[num] 3.01|CD|N[num] a|DT|(NP\NP)/N share|NN|N .|.|.
A|DT|NP[nb]/N Commonwealth|NNP|N/N Edison|NNP|N/N spokesman|NN|N said|VBD|(S[dcl]\NP)/S[em] that|IN|S[em]/S[dcl] tracking|VBG|(S[ng]\NP)/NP down|RP|(S\NP)\(S\NP) the|DT|NP[nb]/N two|CD|(N/N)/(N/N) million|CD|N/N customers|NNS|N whose|WP$|((S\NP)\(S\NP))/NP addresses|NNS|N have|VBP|(S[dcl]\NP)/(S[pt]\NP) changed|VBN|S[pt]\NP during|IN|((S\NP)\(S\NP))/NP the|DT|NP[nb]/N past|JJ|N/N 3|CD|N/N 1\/2|CD|N/N years|NNS|N would|MD|(S[dcl]\NP)/(S[b]\NP) be|VB|(S[b]\NP)/NP an|DT|NP[nb]/N administrative|JJ|N/N nightmare|NN|N .|.|.
In|IN|(S/S)/NP New|NNP|N/N York|NNP|N/N Stock|NNP|N/N Exchange|NNP|N/N composite|JJ|N/N trading|NN|N/N yesterday|NN|N ,|,|, Commonwealth|NNP|N/N Edison|NNP|N closed|VBD|(S[dcl]\NP)/PP at|IN|PP/NP $|$|N/N[num] 38.375|CD|N[num] ,|,|, down|RB|(N/N)/(N/N) 12.5|CD|N/N cents|NNS|N .|.|.
The|DT|NP[nb]/N $|$|N/N[num] 2.5|CD|N/N billion|CD|N[num] Byron|NNP|N/N 1|CD|N/N plant|NN|N near|IN|(NP\NP)/NP Rockford|NNP|N ,|,|, Ill.|NNP|N ,|,|, was|VBD|(S[dcl]\NP)/(S[pss]\NP) completed|VBN|S[pss]\NP in|IN|((S\NP)\(S\NP))/NP 1985|CD|N .|.|.
In|IN|(S/S)/NP a|DT|NP[nb]/N disputed|JJ|N/N 1985|CD|N/N ruling|NN|N ,|,|, the|DT|NP[nb]/N Commerce|NNP|N/N Commission|NNP|N said|VBD|(S[dcl]\NP)/S[dcl] Commonwealth|NNP|N/N Edison|NNP|N could|MD|(S[dcl]\NP)/(S[b]\NP) raise|VB|(S[b]\NP)/NP its|PRP$|NP[nb]/N electricity|NN|N/N rates|NNS|N by|IN|(NP\NP)/NP $|$|N/N[num] 49|CD|N/N million|CD|N[num] to|TO|(S[to]\NP)/(S[b]\NP) pay|VB|(S[b]\NP)/PP for|IN|PP/NP the|DT|NP[nb]/N plant|NN|N .|.|.
But|CC|S/S state|NN|N/N courts|NNS|N upheld|VBD|(S[dcl]\NP)/NP a|DT|NP[nb]/N challenge|NN|N by|IN|(NP\NP)/NP consumer|NN|N/N groups|NNS|N to|TO|(NP\NP)/NP the|DT|NP[nb]/N commission|NN|N 's|POS|(NP[nb]/N)\NP rate|NN|N/N increase|NN|N and|CC|conj found|VBD|(S[dcl]\NP)/NP the|DT|NP[nb]/N rates|NNS|N illegal|JJ|S[adj]\NP .|.|.
The|DT|NP[nb]/N Illinois|NNP|N/N Supreme|NNP|N/N Court|NNP|N ordered|VBD|(S[dcl]\NP)/NP the|DT|NP[nb]/N commission|NN|N to|TO|(S[to]\NP)/(S[b]\NP) audit|VB|(S[b]\NP)/NP Commonwealth|NNP|N/N Edison|NNP|N 's|POS|(NP[nb]/N)\NP construction|NN|N/N expenses|NNS|N and|CC|conj refund|VB|(S[b]\NP)/NP any|DT|NP[nb]/N unreasonable|JJ|N/N expenses|NNS|N .|.|.
The|DT|NP[nb]/N utility|NN|N has|VBZ|(S[dcl]\NP)/(S[pt]\NP) been|VBN|(S[pt]\NP)/NP collecting|VBG|S[ng]\NP for|IN|((S\NP)\(S\NP))/NP the|DT|NP[nb]/N plant|NN|N 's|POS|(NP[nb]/N)\NP construction|NN|N/N cost|NN|N from|IN|(NP\NP)/NP its|PRP$|NP[nb]/N 3.1|CD|(N/N)/(N/N) million|CD|N/N customers|NNS|N subject|JJ|S[adj]\NP to|TO|((S[adj]\NP)\(S[adj]\NP))/NP a|DT|NP[nb]/N refund|NN|N since|IN|(NP\NP)/NP 1986|CD|N .|.|.
In|IN|(S/S)/NP August|NNP|N ,|,|, the|DT|NP[nb]/N commission|NN|N ruled|VBD|(S[dcl]\NP)/S[em] that|IN|S[em]/S[dcl] between|IN|PP/NP $|$|N/N[num] 190|CD|N/N million|CD|N[num] and|CC|conj $|$|N/N[num] 195|CD|N/N million|CD|N[num] of|IN|(NP\NP)/NP the|DT|NP[nb]/N plant|NN|N 's|POS|(NP[nb]/N)\NP construction|NN|N/N cost|NN|N was|VBD|(S[dcl]\NP)/(S[adj]\NP) unreasonable|JJ|S[adj]\NP and|CC|conj should|MD|(S[dcl]\NP)/(S[b]\NP) be|VB|(S[b]\NP)/(S[pss]\NP) refunded|VBN|S[pss]\NP ,|,|, plus|CC|conj interest|NN|N .|.|.
In|IN|(S/S)/NP his|PRP$|NP[nb]/N ruling|NN|N ,|,|, Judge|NNP|N/N Curry|NNP|N added|VBD|(S[dcl]\NP)/NP an|DT|NP[nb]/N additional|JJ|N/N $|$|N/N[num] 55|CD|N/N million|CD|N[num] to|TO|(NP\NP)/NP the|DT|NP[nb]/N commission|NN|N 's|POS|(NP[nb]/N)\NP calculations|NNS|N .|.|.
Last|JJ|N/N month|NN|N ,|,|, Judge|NNP|N/N Curry|NNP|N set|VBD|(S[dcl]\NP)/NP the|DT|NP[nb]/N interest|NN|N/N rate|NN|N on|IN|(NP\NP)/NP the|DT|NP[nb]/N refund|NN|N at|IN|(NP\NP)/NP 9|CD|N/N %|NN|N .|.|.
Commonwealth|NNP|N/N Edison|NNP|N now|RB|(S\NP)/(S\NP) faces|VBZ|(S[dcl]\NP)/NP an|DT|NP[nb]/N additional|JJ|N/N court-ordered|JJ|N/N refund|NN|N on|IN|(NP\NP)/NP its|PRP$|NP[nb]/N summer\/winter|NN|N/N rate|NN|N/N differential|JJ|N/N collections|NNS|N that|IN|S[em]/S[dcl] the|DT|NP[nb]/N Illinois|NNP|N/N Appellate|NNP|N/N Court|NNP|N has|VBZ|(S[dcl]\NP)/(S[pt]\NP) estimated|VBN|S[pss]\NP at|IN|((S\NP)\(S\NP))/NP $|$|N/N[num] 140|CD|N/N million|CD|N[num] .|.|.
And|CC|S/S consumer|NN|N/N groups|NNS|N hope|VBP|(S[dcl]\NP)/PP that|IN|S[em]/S[dcl] Judge|NNP|N/N Curry|NNP|N 's|POS|(NP[nb]/N)\NP Byron|NNP|N/N 1|CD|N/N order|NN|N may|MD|(S[dcl]\NP)/(S[b]\NP) set|VB|(S[b]\NP)/NP a|DT|NP[nb]/N precedent|NN|N for|IN|(NP\NP)/NP a|DT|NP[nb]/N second|JJ|N/N nuclear|JJ|N/N rate|NN|N/N case|NN|N involving|VBG|(S[ng]\NP)/NP Commonwealth|NNP|N/N Edison|NNP|N 's|POS|(NP[nb]/N)\NP Braidwood|NNP|N/N 2|CD|N/N plant|NN|N .|.|.
Commonwealth|NNP|N/N Edison|NNP|N is|VBZ|(S[dcl]\NP)/(S[ng]\NP) seeking|VBG|S[ng]\NP about|IN|((S\NP)\(S\NP))/NP $|$|N/N[num] 245|CD|N/N million|CD|N[num] in|IN|(NP\NP)/NP rate|NN|N/N increases|NNS|N to|TO|(S[to]\NP)/(S[b]\NP) pay|VB|(S[b]\NP)/PP for|IN|PP/NP Braidwood|NNP|N 2|CD|N[num] .|.|.
The|DT|NP[nb]/N commission|NN|N is|VBZ|(S[dcl]\NP)/(S[pss]\NP) expected|VBN|S[pss]\NP to|TO|(S[to]\NP)/(S[b]\NP) rule|VB|(S[b]\NP)/PP on|IN|PP/NP the|DT|NP[nb]/N Braidwood|NNP|N/N 2|CD|N/N case|NN|N by|IN|(NP\NP)/NP year|NN|N/N end|NN|N .|.|.
Last|JJ|N/N year|NN|N/N Commonwealth|NNP|N/N Edison|NNP|N had|VBD|(S[dcl]\NP)/(S[to]\NP) to|TO|(S[to]\NP)/(S[b]\NP) refund|VB|(S[b]\NP)/NP $|$|N/N[num] 72.7|CD|N/N million|CD|N[num] for|IN|(NP\NP)/NP poor|JJ|N/N performance|NN|N of|IN|(NP\NP)/NP its|PRP$|NP[nb]/N LaSalle|NNP|N/N I|PRP|NP nuclear|JJ|N/N plant|NN|N .|.|.
Japan|NNP|N 's|POS|(NP[nb]/N)\NP domestic|JJ|N/N sales|NNS|N of|IN|(NP\NP)/NP cars|NNS|N ,|,|, trucks|NNS|N and|CC|conj buses|NNS|N in|IN|(NP\NP)/NP October|NNP|N rose|VBD|(S[dcl]\NP)/NP 18|CD|N/N %|NN|N from|IN|(NP\NP)/NP a|DT|NP[nb]/N year|NN|N earlier|RBR|(NP\NP)/NP to|TO|PP/NP 500,004|CD|N/N units|NNS|N ,|,|, a|DT|NP[nb]/N record|NN|N for|IN|(NP\NP)/NP the|DT|NP[nb]/N month|NN|N ,|,|, the|DT|NP[nb]/N Japan|NNP|N/N Automobile|NNP|N/N Dealers|NNP|N '|POS|(NP[nb]/N)\NP Association|NNP|N said|VBD|(S[dcl]\S[dcl])\NP .|.|.
The|DT|NP[nb]/N strong|JJ|N/N growth|NN|N followed|VBD|(S[dcl]\NP)/NP year-to-year|JJ|N/N increases|NNS|N of|IN|(NP\NP)/NP 21|CD|N/N %|NN|N in|IN|((S\NP)\(S\NP))/NP August|NNP|N and|CC|conj 12|CD|N/N %|NN|N in|IN|((S\NP)\(S\NP))/NP September|NNP|N .|.|.
The|DT|NP[nb]/N monthly|JJ|N/N sales|NNS|N have|VBP|(S[dcl]\NP)/(S[pt]\NP) been|VBN|(S[pt]\NP)/NP setting|VBG|(S[ng]\NP)/NP records|NNS|N every|DT|NP[nb]/N month|NN|N since|IN|(NP\NP)/NP March|NNP|N .|.|.
October|NNP|N/N sales|NNS|N ,|,|, compared|VBN|S[pss]\NP with|IN|((S\NP)\(S\NP))/NP the|DT|NP[nb]/N previous|JJ|N/N month|NN|N ,|,|, inched|VBD|(S[dcl]\NP)/(S[adj]\NP) down|RB|(N/N)/(N/N) 0.4|CD|N/N %|NN|N .|.|.
Sales|NNS|N of|IN|(NP\NP)/NP passenger|NN|N/N cars|NNS|N grew|VBD|(S[dcl]\NP)/NP 22|CD|N/N %|NN|N from|IN|(NP\NP)/NP a|DT|NP[nb]/N year|NN|N earlier|RBR|(NP\NP)/NP to|TO|PP/NP 361,376|CD|N/N units|NNS|N .|.|.
Sales|NNS|N of|IN|(NP\NP)/NP medium-sized|JJ|N/N cars|NNS|N ,|,|, which|WDT|(NP\NP)/(S[dcl]\NP) benefited|VBD|S[dcl]\NP from|IN|((S\NP)\(S\NP))/NP price|NN|N/N reductions|NNS|N arising|VBG|(S[ng]\NP)/PP from|IN|PP/NP introduction|NN|N of|IN|(NP\NP)/NP the|DT|NP[nb]/N consumption|NN|N/N tax|NN|N ,|,|, more|JJR|N than|IN|(NP\NP)/NP doubled|VBD|(S[dcl]\NP)/(S[to]\NP) to|TO|((S\NP)\(S\NP))/NP 30,841|CD|N/N units|NNS|N from|IN|(NP\NP)/NP 13,056|CD|N in|IN|(NP\NP)/NP October|NNP|N/N 1988|CD|N .|.|.
Texas|NNP|N/N Instruments|NNP|N/N Japan|NNP|N/N Ltd.|NNP|N ,|,|, a|DT|NP[nb]/N unit|NN|N of|IN|(NP\NP)/NP Texas|NNP|N/N Instruments|NNP|N/N Inc.|NNP|N ,|,|, said|VBD|(S[dcl]\NP)/S[dcl] it|PRP|NP opened|VBD|(S[dcl]\NP)/NP a|DT|NP[nb]/N plant|NN|N in|IN|(NP\NP)/NP South|NNP|N/N Korea|NNP|N to|TO|(S[to]\NP)/(S[b]\NP) manufacture|VB|(S[b]\NP)/NP control|NN|N/N devices|NNS|N .|.|.
The|DT|NP[nb]/N new|JJ|N/N plant|NN|N ,|,|, located|VBN|S[pss]\NP in|IN|((S\NP)\(S\NP))/NP Chinchon|NNP|N about|IN|((S\NP)\(S\NP))/NP 60|CD|N/N miles|NNS|N from|IN|(NP\NP)/NP Seoul|NNP|N ,|,|, will|MD|(S[dcl]\NP)/(S[b]\NP) help|VB|(S[b]\NP)/NP meet|VB|(S[b]\NP)/(S[ng]\NP) increasing|VBG|(S[ng]\NP)/NP and|CC|conj diversifying|VBG|N/N demand|NN|N for|IN|(NP\NP)/NP control|NN|N/N products|NNS|N in|IN|(NP\NP)/NP South|NNP|N/N Korea|NNP|N ,|,|, the|DT|NP[nb]/N company|NN|N said|VBD|S[dcl]\NP .|.|.
The|DT|NP[nb]/N plant|NN|N will|MD|(S[dcl]\NP)/(S[b]\NP) produce|VB|(S[b]\NP)/NP control|NN|N/N devices|NNS|N used|VBN|S[pss]\NP in|IN|((S\NP)\(S\NP))/NP motor|NN|N/N vehicles|NNS|N and|CC|conj household|NN|N/N appliances|NNS|N .|.|.
The|DT|NP[nb]/N survival|NN|N of|IN|(NP\NP)/NP spinoff|NN|N/N Cray|NNP|N/N Computer|NNP|N/N Corp.|NNP|N as|IN|((S\NP)\(S\NP))/NP a|DT|NP[nb]/N fledgling|NN|N in|IN|(NP\NP)/NP the|DT|NP[nb]/N supercomputer|NN|N/N business|NN|N appears|VBZ|(S[dcl]\NP)/(S[to]\NP) to|TO|(S[to]\NP)/(S[b]\NP) depend|VB|(S[b]\NP)/(S[adj]\NP) heavily|RB|S[adj]\NP on|IN|((S\NP)\(S\NP))/NP the|DT|NP[nb]/N creativity|NN|N --|:|: and|CC|conj longevity|NN|N --|:|: of|IN|(NP\NP)/NP its|PRP$|NP[nb]/N chairman|NN|N and|CC|conj chief|NN|N/N designer|NN|N ,|,|, Seymour|NNP|N/N Cray|NNP|N .|.|.
Not|RB|(S/S)/(S/S) only|RB|(S\NP)/(S\NP) is|VBZ|(S[dcl]\NP)/NP development|NN|N of|IN|(NP\NP)/NP the|DT|NP[nb]/N new|JJ|N/N company|NN|N 's|POS|(NP[nb]/N)\NP initial|JJ|N/N machine|NN|N tied|VBN|S[pss]\NP directly|RB|(S\NP)\(S\NP) to|TO|PP/NP Mr.|NNP|N/N Cray|NNP|N ,|,|, so|RB|(S\NP)/(S\NP) is|VBZ|(S[dcl]\NP)/NP its|PRP$|NP[nb]/N balance|NN|N/N sheet|NN|N .|.|.
Documents|NNS|N filed|VBN|S[pss]\NP with|IN|((S\NP)\(S\NP))/NP the|DT|NP[nb]/N Securities|NNPS|N/N and|CC|conj Exchange|NNP|N/N Commission|NNP|N on|IN|((S\NP)\(S\NP))/NP the|DT|NP[nb]/N pending|VBG|N/N spinoff|NN|N disclosed|VBD|(S[dcl]\NP)/S[em] that|IN|S[em]/S[dcl] Cray|NNP|N/N Research|NNP|N/N Inc.|NNP|N will|MD|(S[dcl]\NP)/(S[b]\NP) withdraw|VB|(S[b]\NP)/NP the|DT|NP[nb]/N almost|RB|N/N $|$|N/N[num] 100|CD|N/N million|CD|N[num] in|IN|(NP\NP)/NP financing|NN|N it|PRP|NP is|VBZ|(S[dcl]\NP)/(S[ng]\NP) providing|VBG|(S[ng]\NP)/NP the|DT|NP[nb]/N new|JJ|N/N firm|NN|N if|IN|((S\NP)\(S\NP))/NP Mr.|NNP|N/N Cray|NNP|N leaves|VBZ|(S[dcl]\NP)/NP or|CC|conj if|IN|((S\NP)\(S\NP))/NP the|DT|NP[nb]/N product-design|JJ|N/N project|NN|N he|PRP|NP heads|VBZ|(S[dcl]\NP)/NP is|VBZ|(S[dcl]\NP)/(S[pss]\NP) scrapped|VBN|S[pss]\NP .|.|.
The|DT|NP[nb]/N documents|NNS|N also|RB|(S\NP)/(S\NP) said|VBD|(S[dcl]\NP)/S[em] that|IN|S[em]/S[dcl] although|IN|(S/S)/S[dcl] the|DT|NP[nb]/N 64-year-old|JJ|N/N Mr.|NNP|N/N Cray|NNP|N has|VBZ|(S[dcl]\NP)/(S[pt]\NP) been|VBN|(S[pt]\NP)/NP working|VBG|S[ng]\NP on|IN|((S\NP)\(S\NP))/NP the|DT|NP[nb]/N project|NN|N for|IN|(NP\NP)/NP more|JJR|N than|IN|(NP\NP)/NP six|CD|N/N years|NNS|N ,|,|, the|DT|NP[nb]/N Cray-3|NNP|N/N machine|NN|N is|VBZ|(S[dcl]\NP)/PP at|IN|PP/NP least|JJS|N/N another|DT|NP[nb]/N year|NN|N away|RB|((S\NP)\(S\NP))/((S\NP)\(S\NP)) from|IN|PP/NP a|DT|NP[nb]/N fully|RB|(N/N)/(N/N) operational|JJ|N/N prototype|NN|N .|.|.
Moreover|RB|S/S ,|,|, there|EX|NP[thr] have|VBP|(S[dcl]\NP)/(S[pt]\NP) been|VBN|(S[pt]\NP)/NP no|DT|NP[nb]/N orders|NNS|N for|IN|(NP\NP)/NP the|DT|NP[nb]/N Cray-3|NNP|N so|RB|((S\NP)\(S\NP))/((S\NP)\(S\NP)) far|RB|(S\NP)\(S\NP) ,|,|, though|IN|(NP\NP)/NP the|DT|NP[nb]/N company|NN|N says|VBZ|(S[dcl]\NP)/NP it|PRP|NP is|VBZ|(S[dcl]\NP)/(S[ng]\NP) talking|VBG|S[ng]\NP with|IN|((S\NP)\(S\NP))/NP several|JJ|N/N prospects|NNS|N .|.|.
While|IN|(S/S)/NP many|NN|N of|IN|(NP\NP)/NP the|DT|NP[nb]/N risks|NNS|N were|VBD|(S[dcl]\NP)/(S[pss]\NP) anticipated|VBN|S[pss]\NP when|WRB|((S\NP)\(S\NP))/NP Minneapolis-based|JJ|N/N Cray|NNP|N/N Research|NNP|N first|RB|(S\NP)/(S\NP) announced|VBD|(S[dcl]\NP)/NP the|DT|NP[nb]/N spinoff|NN|N in|IN|((S\NP)\(S\NP))/NP May|NNP|N ,|,|, the|DT|NP[nb]/N strings|NNS|N it|PRP|NP attached|VBD|(S[dcl]\NP)/NP to|TO|PP/NP the|DT|NP[nb]/N financing|NN|N had|VBD|(S[dcl]\NP)/(S[pt]\NP) n't|RB|(S\NP)\(S\NP) been|VBN|(S[pt]\NP)/(S[pss]\NP) made|VBN|S[pss]\NP public|JJ|S[adj]\NP until|IN|((S\NP)\(S\NP))/NP yesterday|NN|N .|.|.
We|PRP|NP did|VBD|(S[dcl]\NP)/(S[adj]\NP) n't|RB|(S\NP)\(S\NP) have|VB|(S[b]\NP)/NP much|NN|N of|IN|(NP\NP)/NP a|DT|NP[nb]/N choice|NN|N ,|,|, Cray|NNP|N/N Computer|NNP|N 's|POS|(NP[nb]/N)\NP chief|JJ|N/N financial|JJ|N/N officer|NN|N ,|,|, Gregory|NNP|N/N Barnum|NNP|N ,|,|, said|VBD|(S[dcl]\NP)/S[dcl] in|IN|((S\NP)\(S\NP))/NP an|DT|NP[nb]/N interview|NN|N .|.|.
The|DT|NP[nb]/N theory|NN|N is|VBZ|(S[dcl]\NP)/S[em] that|IN|S[em]/S[dcl] Seymour|NNP|N is|VBZ|(S[dcl]\NP)/NP the|DT|NP[nb]/N chief|JJ|N/N designer|NN|N of|IN|(NP\NP)/NP the|DT|NP[nb]/N Cray-3|NNP|N ,|,|, and|CC|conj without|IN|(NP\NP)/NP him|PRP|NP it|PRP|NP could|MD|(S[dcl]\NP)/(S[b]\NP) not|RB|(S\NP)\(S\NP) be|VB|(S[b]\NP)/(S[pss]\NP) completed|VBN|S[pss]\NP .|.|.
Cray|NNP|N/N Research|NNP|N did|VBD|(S[dcl]\NP)/NP not|RB|(S\NP)\(S\NP) want|VB|(S[b]\NP)/(S[to]\NP) to|TO|(S[to]\NP)/(S[b]\NP) fund|VB|(S[b]\NP)/NP a|DT|NP[nb]/N project|NN|N that|WDT|(NP\NP)/(S[dcl]\NP) did|VBD|(S[dcl]\NP)/(S[adj]\NP) not|RB|(S\NP)\(S\NP) include|VB|(S[b]\NP)/NP Seymour|NNP|N .|.|.
The|DT|NP[nb]/N documents|NNS|N also|RB|(S\NP)/(S\NP) said|VBD|(S[dcl]\NP)/S[em] that|IN|S[em]/S[dcl] Cray|NNP|N/N Computer|NNP|N anticipates|VBZ|(S[dcl]\NP)/(S[ng]\NP) needing|VBG|S[ng]\NP perhaps|RB|(S\NP)\(S\NP) another|DT|NP[nb]/N $|$|N/N[num] 120|CD|N/N million|CD|N[num] in|IN|(NP\NP)/NP financing|NN|N beginning|VBG|(S[ng]\NP)/NP next|JJ|N/N September|NNP|N .|.|.
But|CC|S/S Mr.|NNP|N/N Barnum|NNP|N called|VBD|(S[dcl]\NP)/S[em] that|IN|S[em]/S[dcl] a|DT|NP[nb]/N worst-case|JJ|N/N scenario|NN|N .|.|.
The|DT|NP[nb]/N filing|NN|N on|IN|(NP\NP)/NP the|DT|NP[nb]/N details|NNS|N of|IN|(NP\NP)/NP the|DT|NP[nb]/N spinoff|NN|N caused|VBD|(S[dcl]\NP)/NP Cray|NNP|N/N Research|NNP|N/N stock|NN|N to|TO|(S[to]\NP)/(S[b]\NP) jump|VB|(S[b]\NP)/NP $|$|N/N[num] 2.875|CD|N/N yesterday|NN|N to|TO|(S[to]\NP)/(S[b]\NP) close|VB|(S[b]\NP)/PP at|IN|PP/NP $|$|N/N[num] 38|CD|N[num] in|IN|(NP\NP)/NP New|NNP|N/N York|NNP|N/N Stock|NNP|N/N Exchange|NNP|N/N composite|JJ|N/N trading|NN|N .|.|.
Analysts|NNS|N noted|VBD|S[dcl]\NP yesterday|NN|(S\NP)\(S\NP) that|IN|S[em]/S[dcl] Cray|NNP|N/N Research|NNP|N 's|POS|(NP[nb]/N)\NP decision|NN|N to|TO|(S[to]\NP)/(S[b]\NP) link|VB|(S[b]\NP)/NP its|PRP$|NP[nb]/N $|$|N/N[num] 98.3|CD|N/N million|CD|N[num] promissory|JJ|N/N note|NN|N to|TO|(NP\NP)/NP Mr.|NNP|N/N Cray|NNP|N 's|POS|(NP[nb]/N)\NP presence|NN|N will|MD|(S[dcl]\NP)/(S[b]\NP) complicate|VB|(S[b]\NP)/NP a|DT|NP[nb]/N valuation|NN|N of|IN|(NP\NP)/NP the|DT|NP[nb]/N new|JJ|N/N company|NN|N .|.|.
It|PRP|NP has|VBZ|(S[dcl]\NP)/NP to|TO|(S[to]\NP)/(S[b]\NP) be|VB|(S[b]\NP)/(S[pss]\NP) considered|VBN|S[pss]\NP as|IN|((S\NP)\(S\NP))/NP an|DT|NP[nb]/N additional|JJ|N/N risk|NN|N for|IN|(NP\NP)/NP the|DT|NP[nb]/N investor|NN|N ,|,|, said|VBD|(S[dcl]\S[dcl])/NP Gary|NNP|N/N P.|NNP|N/N Smaby|NNP|N of|IN|(NP\NP)/NP Smaby|NNP|N/N Group|NNP|N/N Inc.|NNP|N ,|,|, Minneapolis|NNP|N .|.|.
Cray|NNP|N/N Computer|NNP|N will|MD|(S[dcl]\NP)/(S[b]\NP) be|VB|(S[b]\NP)/NP a|DT|NP[nb]/N concept|NN|N/N stock|NN|N ,|,|, he|PRP|NP said|VBD|(S[dcl]\S[dcl])\NP .|.|.
You|PRP|NP either|RB|(S\NP)/(S\NP) believe|VBP|(S[dcl]\NP)/S[dcl] Seymour|NNP|N can|MD|(S[dcl]\NP)/(S[b]\NP) do|VB|(S[b]\NP)/NP it|PRP|NP again|RB|(S\NP)\(S\NP) or|CC|conj you|PRP|NP do|VBP|(S[dcl]\NP)/(S[adj]\NP) n't|RB|(S\NP)\(S\NP) .|.|.
Besides|IN|(S/S)/NP the|DT|NP[nb]/N designer|NN|N 's|POS|(NP[nb]/N)\NP age|NN|N ,|,|, other|JJ|N/N risk|NN|N/N factors|NNS|N for|IN|(NP\NP)/NP Mr.|NNP|N/N Cray|NNP|N 's|POS|(NP[nb]/N)\NP new|JJ|N/N company|NN|N include|VBP|(S[dcl]\NP)/NP the|DT|NP[nb]/N Cray-3|NNP|N 's|POS|(NP[nb]/N)\NP tricky|JJ|N/N ,|,|, unproven|JJ|N/N chip|NN|N/N technology|NN|N .|.|.
The|DT|NP[nb]/N SEC|NNP|N/N documents|NNS|N describe|VBP|(S[dcl]\NP)/NP those|DT|NP[nb]/N chips|NNS|N ,|,|, which|WDT|(NP\NP)/(S[dcl]\NP) are|VBP|(S[dcl]\NP)/(S[pss]\NP) made|VBN|(S[pss]\NP)/PP of|IN|PP/NP gallium|NN|N/N arsenide|NN|N ,|,|, as|IN|(NP\NP)/NP being|VBG|(S[ng]\NP)/NP so|RB|(S[adj]\NP)/(S[adj]\NP) fragile|JJ|S[adj]\NP and|CC|conj minute|JJ|S[adj]\NP they|PRP|NP will|MD|(S[dcl]\NP)/(S[b]\NP) require|VB|(S[b]\NP)/NP special|JJ|N/N robotic|JJ|N/N handling|NN|N/N equipment|NN|N .|.|.
In|IN|(S/S)/NP addition|NN|N ,|,|, the|DT|NP[nb]/N Cray-3|NNP|N will|MD|(S[dcl]\NP)/(S[b]\NP) contain|VB|(S[b]\NP)/NP 16|CD|N/N processors|NNS|N --|:|: twice|RB|(S\NP)/(S\NP) as|AS|(N/PP)/(S[adj]\NP) many|JJ|S[adj]\NP as|IN|PP/NP the|DT|NP[nb]/N largest|JJS|N/N current|JJ|N/N supercomputer|NN|N .|.|.
Cray|NNP|N/N Computer|NNP|N also|RB|(S\NP)/(S\NP) will|MD|(S[dcl]\NP)/(S[b]\NP) face|VB|(S[b]\NP)/NP intense|JJ|N/N competition|NN|N ,|,|, not|RB|((S\NP)\(S\NP))/((S\NP)\(S\NP)) only|RB|(S\NP)\(S\NP) from|IN|PP/NP Cray|NNP|N/N Research|NNP|N ,|,|, which|WDT|(NP\NP)/(S[dcl]\NP) has|VBZ|(S[dcl]\NP)/NP about|RB|(S\NP)\(S\NP) 60|CD|N/N %|NN|N of|IN|(NP\NP)/NP the|DT|NP[nb]/N world-wide|JJ|N/N supercomputer|NN|N/N market|NN|N and|CC|conj which|WDT|(NP\NP)/(S[dcl]\NP) is|VBZ|(S[dcl]\NP)/(S[pss]\NP) expected|VBN|(S[pss]\NP)/(S[to]\NP) to|TO|(S[to]\NP)/(S[b]\NP) roll|VB|(S[b]\NP)/NP out|RP|(S\NP)\(S\NP) the|DT|NP[nb]/N C-90|NNP|N/N machine|NN|N ,|,|, a|DT|NP[nb]/N direct|JJ|N/N competitor|NN|N with|IN|(NP\NP)/NP the|DT|NP[nb]/N Cray-3|NNP|N ,|,|, in|IN|((S\NP)\(S\NP))/NP 1991|CD|N .|.|.
The|DT|NP[nb]/N spinoff|NN|N also|RB|(S\NP)/(S\NP) will|MD|(S[dcl]\NP)/(S[b]\NP) compete|VB|(S[b]\NP)/PP with|IN|PP/NP International|NNP|N/N Business|NNP|N/N Machines|NNPS|N/N Corp.|NNP|N and|CC|conj Japan|NNP|N 's|POS|(NP[nb]/N)\NP Big|NNP|N/N Three|NNP|N --|:|(NP\NP)/NP Hitachi|NNP|N/N Ltd.|NNP|N ,|,|, NEC|NNP|N/N Corp.|NNP|N and|CC|conj Fujitsu|NNP|N/N Ltd|NNP|N .|.|.
The|DT|NP[nb]/N new|JJ|N/N company|NN|N said|VBD|(S[dcl]\NP)/S[dcl] it|PRP|NP believes|VBZ|(S[dcl]\NP)/NP there|EX|NP[thr] are|VBP|(S[dcl]\NP)/(S[adj]\NP) fewer|JJR|S[adj]\NP than|IN|((S[adj]\NP)\(S[adj]\NP))/NP 100|CD|N/N potential|JJ|N/N customers|NNS|N for|IN|(NP\NP)/NP supercomputers|NNS|N priced|VBN|S[pss]\NP between|IN|((S\NP)\(S\NP))/NP $|$|N/N[num] 15|CD|N/N million|CD|N[num] and|CC|conj $|$|N/N[num] 30|CD|N/N million|CD|N[num] --|:|(NP\NP)/NP presumably|RB|NP/NP the|DT|NP[nb]/N Cray-3|JJ|N/N price|NN|N/N range|NN|N .|.|.
Under|IN|(S/S)/NP terms|NNS|N of|IN|(NP\NP)/NP the|DT|NP[nb]/N spinoff|NN|N ,|,|, Cray|NNP|N/N Research|NNP|N/N stockholders|NNS|N are|VBP|(S[dcl]\NP)/NP to|TO|(S[to]\NP)/(S[b]\NP) receive|VB|(S[b]\NP)/NP one|CD|N/N Cray|NNP|N/N Computer|NNP|N/N share|NN|N for|IN|(NP\NP)/NP every|DT|NP[nb]/N two|CD|N/N Cray|NNP|N/N Research|NNP|N/N shares|NNS|N they|PRP|NP own|VBP|(S[dcl]\NP)/PP in|IN|PP/NP a|DT|NP[nb]/N distribution|NN|N expected|VBN|(S[pss]\NP)/(S[to]\NP) to|TO|(S[to]\NP)/(S[b]\NP) occur|VB|(S[b]\NP)/PP in|IN|PP/NP about|IN|(N/N)/(N/N) two|CD|N/N weeks|NNS|N .|.|.
No|DT|NP[nb]/N price|NN|N for|IN|(NP\NP)/NP the|DT|NP[nb]/N new|JJ|N/N shares|NNS|N has|VBZ|(S[dcl]\NP)/(S[pt]\NP) been|VBN|(S[pt]\NP)/(S[pss]\NP) set|VBN|S[pss]\NP .|.|.
Instead|RB|S/S ,|,|, the|DT|NP[nb]/N companies|NNS|N will|MD|(S[dcl]\NP)/(S[b]\NP) leave|VB|(S[b]\NP)/NP it|PRP|NP up|RP|(S\NP)\(S\NP) to|TO|PP/NP the|DT|NP[nb]/N marketplace|NN|N to|TO|(S[to]\NP)/(S[b]\NP) decide|VB|S[b]\NP .|.|.
Cray|NNP|N/N Computer|NNP|N has|VBZ|(S[dcl]\NP)/(S[pt]\NP) applied|VBN|(S[pt]\NP)/NP to|TO|(S[to]\NP)/(S[b]\NP) trade|VB|(S[b]\NP)/PP on|IN|PP/NP Nasdaq|NNP|N .|.|.
Analysts|NNS|N calculate|VBP|(S[dcl]\NP)/S[dcl] Cray|NNP|N/N Computer|NNP|N 's|POS|(NP[nb]/N)\NP initial|JJ|N/N book|NN|N/N value|NN|N at|IN|(NP\NP)/NP about|IN|N/N $|$|N/N[num] 4.75|CD|N[num] a|DT|(NP\NP)/N share|NN|N .|.|.
Along|IN|(S/S)/NP with|IN|PP/NP the|DT|NP[nb]/N note|NN|N ,|,|, Cray|NNP|N/N Research|NNP|N is|VBZ|(S[dcl]\NP)/(S[ng]\NP) transferring|VBG|S[ng]\NP about|IN|((S\NP)\(S\NP))/NP $|$|N/N[num] 53|CD|N/N million|CD|N[num] in|IN|(NP\NP)/NP assets|NNS|N ,|,|, primarily|RB|(S\NP)/(S\NP) those|DT|NP[nb]/N related|VBN|(S[pss]\NP)/PP to|TO|PP/NP the|DT|NP[nb]/N Cray-3|JJ|N/N development|NN|N ,|,|, which|WDT|(NP\NP)/(S[dcl]\NP) has|VBZ|(S[dcl]\NP)/(S[pt]\NP) been|VBN|(S[pt]\NP)/NP a|DT|NP[nb]/N drain|NN|N on|IN|(NP\NP)/NP Cray|NNP|N/N Research|NNP|N 's|POS|(NP[nb]/N)\NP earnings|NNS|N .|.|.
Pro-forma|NNP|N/N balance|NN|N/N sheets|NNS|N clearly|RB|(S\NP)/(S\NP) show|VBP|(S[dcl]\NP)/NP why|WRB|N/N Cray|NNP|N/N Research|NNP|N favored|VBD|(S[dcl]\NP)/NP the|DT|NP[nb]/N spinoff|NN|N .|.|.
Without|IN|(S/S)/NP the|DT|NP[nb]/N Cray-3|JJ|N/N research|NN|N and|CC|conj development|NN|N/N expenses|NNS|N ,|,|, the|DT|NP[nb]/N company|NN|N would|MD|(S[dcl]\NP)/(S[b]\NP) have|VB|(S[b]\NP)/(S[pt]\NP) been|VBN|S[pss]\NP able|JJ|(S[adj]\NP)/(S[to]\NP) to|TO|(S[to]\NP)/(S[b]\NP) report|VB|(S[b]\NP)/NP a|DT|NP[nb]/N profit|NN|N of|IN|(NP\NP)/NP $|$|N/N[num] 19.3|CD|N/N million|CD|N[num] for|IN|(NP\NP)/NP the|DT|NP[nb]/N first|JJ|N/N half|NN|N of|IN|(NP\NP)/NP 1989|CD|N rather|RB|(S\NP)\(S\NP) than|IN|((S\NP)\(S\NP))/NP the|DT|NP[nb]/N $|$|N/N[num] 5.9|CD|N/N million|CD|N[num] it|PRP|NP posted|VBD|S[dcl]\NP .|.|.
On|IN|(S/S)/NP the|DT|NP[nb]/N other|JJ|N/N hand|NN|N ,|,|, had|VBD|(S[dcl]\NP)/S[dcl] it|PRP|NP existed|VBD|(S[dcl]\NP)/NP then|RB|(S\NP)\(S\NP) ,|,|, Cray|NNP|N/N Computer|NNP|N would|MD|(S[dcl]\NP)/(S[b]\NP) have|VB|(S[b]\NP)/(S[pt]\NP) incurred|VBN|(S[pt]\NP)/NP a|DT|NP[nb]/N $|$|N/N[num] 20.5|CD|N/N million|CD|N/N loss|NN|N .|.|.
Mr.|NNP|N/N Cray|NNP|N ,|,|, who|WP|(NP\NP)/(S[dcl]\NP) could|MD|(S[dcl]\NP)/(S[b]\NP) n't|RB|(S\NP)\(S\NP) be|VB|(S[b]\NP)/(S[pss]\NP) reached|VBN|S[pss]\NP for|IN|((S\NP)\(S\NP))/NP comment|NN|N ,|,|, will|MD|(S[dcl]\NP)/(S[b]\NP) work|VB|(S[b]\NP)/PP for|IN|PP/NP the|DT|NP[nb]/N new|JJ|N/N Colorado|NNP|N/N Springs|NNP|N ,|,|, Colo.|NNP|N ,|,|, company|NN|N as|IN|(NP\NP)/NP an|DT|NP[nb]/N independent|JJ|N/N contractor|NN|N --|IN|(NP\NP)/NP the|DT|NP[nb]/N arrangement|NN|N he|PRP|NP had|VBD|(S[dcl]\NP)/PP with|IN|PP/NP Cray|NNP|N/N Research|NNP|N .|.|.
Regarded|VBN|(S[pss]\NP)/PP as|IN|PP/NP the|DT|NP[nb]/N father|NN|N of|IN|(NP\NP)/NP the|DT|NP[nb]/N supercomputer|NN|N ,|,|, Mr.|NNP|N/N Cray|NNP|N was|VBD|(S[dcl]\NP)/(S[pss]\NP) paid|VBN|S[pss]\NP $|$|N/N[num] 600,000|CD|N[num] at|IN|(NP\NP)/NP Cray|NNP|N/N Research|NNP|N/N last|JJ|N/N year|NN|N .|.|.
At|IN|(S/S)/NP Cray|NNP|N/N Computer|NNP|N ,|,|, he|PRP|NP will|MD|(S[dcl]\NP)/(S[b]\NP) be|VB|(S[b]\NP)/(S[pss]\NP) paid|VBN|S[pss]\NP $|$|N/N[num] 240,000|CD|N[num] .|.|.
Besides|IN|(S/S)/NP Messrs.|NNP|N/N Cray|NNP|N and|CC|conj Barnum|NNP|N ,|,|, other|JJ|N/N senior|JJ|N/N management|NN|N at|IN|(NP\NP)/NP the|DT|NP[nb]/N company|NN|N includes|VBZ|(S[dcl]\NP)/NP Neil|NNP|N/N Davenport|NNP|N ,|,|, 47|CD|N ,|,|, president|NN|N and|CC|conj chief|JJ|N/N executive|NN|N/N officer|NN|N ;|;|; Joseph|NNP|N/N M.|NNP|N/N Blanchard|NNP|N ,|,|, 37|CD|N ,|,|, vice|NN|N/N president|NN|N ,|,|, engineering|NN|N ;|;|; Malcolm|NNP|N/N A.|NN|N/N Hammerton|NNP|N ,|,|, 40|CD|N ,|,|, vice|NN|N/N president|NN|N ,|,|, software|NN|N ;|;|; and|CC|conj Douglas|NNP|N/N R.|NNP|N/N Wheeland|NNP|N ,|,|, 45|CD|N ,|,|, vice|NN|N/N president|NN|N ,|,|, hardware|NN|N .|.|.
